===========Generating Bitstream===========
# IDMUX (count=6)
00000000: 00 00 00 00 00 00
# IOPORT_0 (count=7)
00000006: 00 00 00 00 00 00 00
# IOPINS0_0 (count=16)
0000000d: 00 00 00 00 00 00 00 00 00 00 00 00 00 00 00 00

# IOPORT_1 (count=7)
0000001d: 00 00 00 00 00 00 00
# IOPINS0_1 (count=8)
00000024: 00 0b 0b 00 00 00 00 00
# IOPINS1_1 + 0x00000009 (count=5)
0000002c: 00 00 00 00 00
# PICU_1 (count=8)
00000031: 00 00 00 00 00 00 00 00
# IOPORT_2 (count=7)
00000039: 00 00 00 00 00 00 00
# IOPINS0_2 (count=8)
00000040: 00 7f 7f 00 00 00 00 00
# IOPINS1_2 + 0x00000009 (count=5)
00000048: 00 00 00 00 00
# PICU_2 (count=8)
0000004d: 00 00 00 00 00 00 00 00
# IOPORT_3 (count=7)
00000055: 00 00 00 00 00 00 00
# IOPINS0_3 (count=10)
0000005c: 80 00 80 00 00 00 00 00 00 00
# IOPINS1_3 + 0x0000000B (count=5)
00000066: 00 00 00 00 00
# PICU_3 (count=8)
0000006b: 00 00 00 00 00 00 00 00
# IOPORT_4 (count=7)
00000073: 00 00 00 00 00 00 00
# IOPINS0_4 (count=16)
0000007a: 00 00 00 00 00 00 00 00 00 00 00 00 00 00 00 00

# IOPORT_5 (count=7)
0000008a: 00 00 00 00 00 00 00
# IOPINS0_5 (count=16)
00000091: 00 00 00 00 00 00 00 00 00 00 00 00 00 00 00 00

# IOPORT_6 (count=7)
000000a1: 00 00 00 00 00 00 00
# IOPINS0_6 (count=8)
000000a8: 00 0c 0c 00 00 00 00 00
# IOPINS1_6 + 0x00000009 (count=5)
000000b0: 00 00 00 00 00
# PICU_6 (count=8)
000000b5: 00 00 00 00 00 00 00 00
# IOPORT_7 (count=6)
000000bd: 00 00 00 00 00 00
# IOPINS0_7 (count=16)
000000c3: 00 00 00 00 00 00 00 00 00 00 00 00 00 00 00 00

# IOPORT_8 (count=7)
000000d3: 00 00 00 00 00 00 00
# IOPINS0_8 (count=16)
000000da: 00 00 00 00 00 00 00 00 00 00 00 00 00 00 00 00

# IDMUX_IRQ (count=8)
000000ea: 0b 00 00 00 00 00 00 00
# CYDEV_SLOWCLK_ILO_CR0 (count=1)
000000f2: 02
# CYDEV_CLKDIST_CR (count=1)
000000f3: 08
# CYDEV_FASTCLK_IMO_CR (count=1)
000000f4: 03
# CYDEV_FASTCLK_PLL_P (count=2)
000000f5: 08 00
# CYDEV_FASTCLK_PLL_CFG0 (count=2)
000000f7: 51 12
# CYDEV_CLKDIST_MSTR0 (count=2)
000000f9: 00 01
# CYDEV_CLKDIST_MSTR0 (count=1)
000000fb: 07
# CYDEV_CLKDIST_BCFG0 (count=1)
000000fc: 00
# CYDEV_CLKDIST_BCFG2 (count=1)
000000fd: 48
# CYDEV_CLKDIST_MSTR0 (count=1)
000000fe: 00
# CYDEV_CLKDIST_LD (count=1)
000000ff: 02
# TMR0 (count=12)
00000100: 00 80 00 00 00 00 00 00 00 00 4b 00
# UDB_1_5_0_CONFIG (count=128)
0000010c: 00 00 00 00 00 00 00 00 00 00 00 00 00 00 00 00
0000011c: 00 00 00 00 00 00 00 00 00 00 00 00 00 00 00 00
0000012c: 00 00 00 00 00 00 00 00 00 00 00 00 00 00 00 00
0000013c: 00 00 00 00 00 00 00 00 00 00 00 00 00 00 00 00
0000014c: 00 00 00 00 00 00 00 00 00 00 00 00 00 00 00 00
0000015c: 00 00 00 00 00 00 00 00 00 00 00 00 00 00 00 00
0000016c: 00 00 00 00 00 00 00 00 00 00 00 00 00 00 00 00
0000017c: 00 00 00 00 00 00 00 00 00 00 00 00 00 00 00 00

# UDB_1_5_1_CONFIG (count=128)
0000018c: 00 00 00 00 00 00 00 00 00 00 00 00 00 00 00 00
0000019c: 00 00 00 00 00 00 00 00 00 00 00 00 00 00 00 00
000001ac: 00 00 00 00 00 00 00 00 00 00 00 00 00 00 00 00
000001bc: 00 00 00 00 00 00 00 00 00 00 00 00 00 00 00 00
000001cc: 00 00 00 00 00 00 00 00 00 00 00 00 00 00 00 00
000001dc: 00 00 00 00 00 00 00 00 00 00 00 00 00 00 00 00
000001ec: 00 00 00 00 00 00 00 00 00 00 00 00 00 00 00 00
000001fc: 00 00 00 00 00 00 00 00 00 00 00 00 00 00 00 00

# UDB_1_4_1_CONFIG (count=128)
0000020c: 00 00 00 00 00 00 00 00 00 00 00 00 00 00 00 00
0000021c: 00 00 00 00 00 00 00 00 00 00 00 00 00 00 00 00
0000022c: 00 00 00 00 00 00 00 00 00 00 00 00 00 00 00 00
0000023c: 00 00 00 00 00 00 00 00 00 00 00 00 00 00 00 00
0000024c: 00 00 00 00 00 00 00 00 00 00 00 00 00 00 00 00
0000025c: 00 00 00 00 00 00 00 00 00 00 00 00 00 00 00 00
0000026c: 00 00 00 00 00 00 00 00 00 00 00 00 00 00 00 00
0000027c: 00 00 00 00 00 00 00 00 00 00 00 00 00 00 00 00

# UDB_1_4_0_CONFIG (count=128)
0000028c: 00 00 00 00 00 00 00 00 00 00 00 00 00 00 00 00
0000029c: 00 00 00 00 00 00 00 00 00 00 00 00 00 00 00 00
000002ac: 00 00 00 00 00 00 00 00 00 00 00 00 00 00 00 00
000002bc: 00 00 00 00 00 00 00 00 00 00 00 00 00 00 00 00
000002cc: 00 00 00 00 00 00 00 00 00 00 00 00 00 00 00 00
000002dc: 00 00 00 00 00 00 00 00 00 00 00 00 00 00 00 00
000002ec: 00 00 00 00 00 00 00 00 00 00 00 00 00 00 00 00
000002fc: 00 00 00 00 00 00 00 00 00 00 00 00 00 00 00 00

# UDB_1_3_0_CONFIG (count=128)
0000030c: 00 00 00 00 00 00 00 00 00 00 00 00 00 00 00 00
0000031c: 00 00 00 00 00 00 00 00 00 00 00 00 00 00 00 00
0000032c: 00 00 00 00 00 00 00 00 00 00 00 00 00 00 00 00
0000033c: 00 00 00 00 00 00 00 00 00 00 00 00 00 00 00 00
0000034c: 00 00 00 00 00 00 00 00 00 00 00 00 00 00 00 00
0000035c: 00 00 00 00 00 00 00 00 00 00 00 00 00 00 00 00
0000036c: 00 00 00 00 00 00 00 00 00 00 00 00 00 00 00 00
0000037c: 00 00 00 00 00 00 00 00 00 00 00 00 00 00 00 00

# UDB_1_3_1_CONFIG (count=128)
0000038c: 00 00 00 00 00 00 00 00 00 00 00 00 00 00 00 00
0000039c: 00 00 00 00 00 00 00 00 00 00 00 00 00 00 00 00
000003ac: 00 00 00 00 00 00 00 00 00 00 00 00 00 00 00 00
000003bc: 00 00 00 00 00 00 00 00 00 00 00 00 00 00 00 00
000003cc: 00 00 00 00 00 00 00 00 00 00 00 00 00 00 00 00
000003dc: 00 00 00 00 00 00 00 00 00 00 00 00 00 00 00 00
000003ec: 00 00 00 00 00 00 00 00 00 00 00 00 00 00 00 00
000003fc: 00 00 00 00 00 00 00 00 00 00 00 00 00 00 00 00

# UDB_1_2_1_CONFIG (count=128)
0000040c: 00 00 00 00 00 00 00 00 00 00 00 00 00 00 00 00
0000041c: 00 00 00 00 00 00 00 00 00 00 00 00 00 00 00 00
0000042c: 00 00 00 00 00 00 00 00 00 00 00 00 00 00 00 00
0000043c: 00 00 00 00 00 00 00 00 00 00 00 00 00 00 00 00
0000044c: 00 00 00 00 00 00 00 00 00 00 00 00 00 00 00 00
0000045c: 00 00 00 00 00 00 00 00 00 00 00 00 00 00 00 00
0000046c: 00 00 00 00 00 00 00 00 00 00 00 00 00 00 00 00
0000047c: 00 00 00 00 00 00 00 00 00 00 00 00 00 00 00 00

# UDB_1_2_0_CONFIG (count=128)
0000048c: 00 00 00 00 00 00 00 00 00 00 00 00 00 00 00 00
0000049c: 00 00 00 00 00 00 00 00 00 00 00 00 00 00 00 00
000004ac: 00 00 00 00 00 00 00 00 00 00 00 00 00 00 00 00
000004bc: 00 00 00 00 00 00 00 00 00 00 00 00 00 00 00 00
000004cc: 00 00 00 00 00 00 00 00 00 00 00 00 00 00 00 00
000004dc: 00 00 00 00 00 00 00 00 00 00 00 00 00 00 00 00
000004ec: 00 00 00 00 00 00 00 00 00 00 00 00 00 00 00 00
000004fc: 00 00 00 00 00 00 00 00 00 00 00 00 00 00 00 00

# UDB_0_2_1_CONFIG (count=128)
0000050c: 00 00 00 00 00 00 00 00 00 00 00 00 00 00 00 00
0000051c: 00 00 00 00 00 00 00 00 00 00 00 00 00 00 00 00
0000052c: 00 00 00 00 00 00 00 00 00 00 00 00 00 00 00 00
0000053c: 00 00 00 00 00 00 00 00 00 00 00 00 00 00 00 00
0000054c: 00 00 00 00 00 00 00 00 00 00 00 00 00 00 00 00
0000055c: 00 00 00 00 00 00 00 00 00 00 00 00 00 00 00 00
0000056c: 00 00 00 00 00 00 00 00 00 00 00 00 00 00 00 00
0000057c: 00 00 00 00 00 00 00 00 00 00 00 00 00 00 00 00

# UDB_0_2_0_CONFIG (count=128)
0000058c: 00 00 00 00 00 00 00 00 00 00 00 00 00 00 00 00
0000059c: 00 00 00 00 00 00 00 00 00 00 00 00 00 00 00 00
000005ac: 00 00 00 00 00 00 00 00 00 00 00 00 00 00 00 00
000005bc: 00 00 00 00 00 00 00 00 00 00 00 00 00 00 00 00
000005cc: 00 00 00 00 00 00 00 00 00 00 00 00 00 00 00 00
000005dc: 00 00 00 00 00 00 00 00 00 00 00 00 00 00 00 00
000005ec: 00 00 00 00 00 00 00 00 00 00 00 00 00 00 00 00
000005fc: 00 00 00 00 00 00 00 00 00 00 00 00 00 00 00 00

# UDB_0_3_0_CONFIG (count=128)
0000060c: 00 00 00 00 00 00 00 00 00 00 00 00 00 00 00 00
0000061c: 00 00 00 00 00 00 00 00 00 00 00 00 00 00 00 00
0000062c: 00 00 00 00 00 00 00 00 00 00 00 00 00 00 00 00
0000063c: 00 00 00 00 00 00 00 00 00 00 00 00 00 00 00 00
0000064c: 00 00 00 00 00 00 00 00 00 00 00 00 00 00 00 00
0000065c: 00 00 00 00 00 00 00 00 00 00 00 00 00 00 00 00
0000066c: 00 00 00 00 00 00 00 00 00 00 00 00 00 00 00 00
0000067c: 00 00 00 00 00 00 00 00 00 00 00 00 00 00 00 00

# UDB_0_3_1_CONFIG (count=128)
0000068c: 00 00 00 00 00 00 00 00 00 00 00 00 00 00 00 00
0000069c: 00 00 00 00 00 00 00 00 00 00 00 00 00 00 00 00
000006ac: 00 00 00 00 00 00 00 00 00 00 00 00 00 00 00 00
000006bc: 00 00 00 00 00 00 00 00 20 00 00 00 00 00 10 00
000006cc: 00 00 00 00 00 00 00 00 00 00 00 00 00 00 00 00
000006dc: 00 00 00 00 00 00 00 00 04 00 00 00 00 00 00 01
000006ec: 00 00 00 00 00 00 00 00 00 00 00 00 00 00 00 00
000006fc: 00 00 00 00 00 00 00 00 00 00 00 00 00 00 00 00

# UDB_0_4_1_CONFIG (count=128)
0000070c: 00 00 00 00 00 00 00 00 00 00 00 00 00 00 00 00
0000071c: 00 00 00 00 00 00 00 00 00 00 00 00 00 00 00 00
0000072c: 00 00 00 00 00 00 00 00 00 00 00 00 00 00 00 00
0000073c: 00 00 00 00 00 00 00 00 00 00 00 00 00 00 00 00
0000074c: 00 00 00 00 00 00 00 00 00 00 00 00 00 00 00 00
0000075c: 00 00 00 00 00 00 00 00 00 00 00 00 00 00 00 00
0000076c: 00 00 00 00 00 00 00 00 00 00 00 00 00 00 00 00
0000077c: 00 00 00 00 00 00 00 00 00 00 00 00 00 00 00 00

# UDB_0_4_0_CONFIG (count=128)
0000078c: 00 00 00 00 00 00 00 00 00 00 00 00 00 00 00 00
0000079c: 00 00 00 00 00 00 00 00 00 00 00 00 00 00 00 00
000007ac: 00 00 00 00 00 00 00 00 00 00 00 00 00 00 00 00
000007bc: 00 00 00 00 00 00 00 00 00 00 00 00 00 00 00 00
000007cc: 00 00 00 00 00 00 00 00 00 00 00 00 00 00 00 00
000007dc: 00 00 00 00 00 00 00 00 00 00 00 00 00 00 00 00
000007ec: 00 00 00 00 00 00 00 00 00 00 00 00 00 00 00 00
000007fc: 00 00 00 00 00 00 00 00 00 00 00 00 00 00 00 00

# UDB_0_5_0_CONFIG (count=128)
0000080c: 00 00 00 00 00 00 00 00 00 00 00 00 00 00 00 00
0000081c: 00 00 00 00 00 00 00 00 00 00 00 00 00 00 00 00
0000082c: 00 00 00 00 00 00 00 00 00 00 00 00 00 00 00 00
0000083c: 00 00 00 00 00 00 00 00 00 00 00 00 00 00 00 00
0000084c: 00 00 00 00 00 00 00 00 00 00 00 00 00 00 00 00
0000085c: 00 00 00 00 00 00 00 00 00 00 00 00 00 00 00 00
0000086c: 00 00 00 00 00 00 00 00 00 00 00 00 00 00 00 00
0000087c: 00 00 00 00 00 00 00 00 00 00 00 00 00 00 00 00

# UDB_0_5_1_CONFIG (count=128)
0000088c: 00 00 00 00 00 00 00 00 00 00 00 00 00 00 00 00
0000089c: 00 00 00 00 00 00 00 00 00 00 00 00 00 00 00 00
000008ac: 00 00 00 00 00 00 00 00 00 00 00 00 00 00 00 00
000008bc: 00 00 00 00 00 00 00 00 00 00 00 00 00 00 00 00
000008cc: 00 00 00 00 00 00 00 00 00 00 00 00 00 00 00 00
000008dc: 00 00 00 00 00 00 00 00 00 00 00 00 00 00 00 00
000008ec: 00 00 00 00 00 00 00 00 00 00 00 00 00 00 00 00
000008fc: 00 00 00 00 00 00 00 00 00 00 00 00 00 00 00 00

# UDB_1_0_0_CONFIG (count=128)
0000090c: 00 00 00 00 00 00 00 00 00 00 00 00 00 00 00 00
0000091c: 00 00 00 00 00 00 00 00 00 00 00 00 00 00 00 00
0000092c: 00 00 00 00 00 00 00 00 00 00 00 00 00 00 00 00
0000093c: 00 00 00 00 00 00 00 00 00 00 00 00 00 00 00 00
0000094c: 00 00 00 00 00 00 00 00 00 00 00 00 00 00 00 00
0000095c: 00 00 00 00 00 00 00 00 00 00 00 00 00 00 00 00
0000096c: 00 00 00 00 00 00 00 00 00 00 00 00 00 00 00 00
0000097c: 00 00 00 00 00 00 00 00 00 00 00 00 00 00 00 00

# UDB_1_0_1_CONFIG (count=128)
0000098c: 00 00 00 00 00 00 00 00 00 00 00 00 00 00 00 00
0000099c: 00 00 00 00 00 00 00 00 00 00 00 00 00 00 00 00
000009ac: 00 00 00 00 00 00 00 00 00 00 00 00 00 00 00 00
000009bc: 00 00 00 00 00 00 00 00 00 00 00 00 00 00 00 00
000009cc: 00 00 00 00 00 00 00 00 00 00 00 00 00 00 00 00
000009dc: 00 00 00 00 00 00 00 00 00 00 00 00 00 00 00 00
000009ec: 00 00 00 00 00 00 00 00 00 00 00 00 00 00 00 00
000009fc: 00 00 00 00 00 00 00 00 00 00 00 00 00 00 00 00

# UDB_1_1_1_CONFIG (count=128)
00000a0c: 00 00 00 00 00 00 00 00 00 00 00 00 00 00 00 00
00000a1c: 00 00 00 00 00 00 00 00 00 00 00 00 00 00 00 00
00000a2c: 00 00 00 00 00 00 00 00 00 00 00 00 00 00 00 00
00000a3c: 00 00 00 00 00 00 00 00 00 00 00 00 00 00 00 00
00000a4c: 00 00 00 00 00 00 00 00 00 00 00 00 00 00 00 00
00000a5c: 00 00 00 00 00 00 00 00 00 00 00 00 00 00 00 00
00000a6c: 00 00 00 00 00 00 00 00 00 00 00 00 00 00 00 00
00000a7c: 00 00 00 00 00 00 00 00 00 00 00 00 00 00 00 00

# UDB_1_1_0_CONFIG (count=128)
00000a8c: 00 00 00 00 00 00 00 00 00 00 00 00 00 00 00 00
00000a9c: 00 00 00 00 00 00 00 00 00 00 00 00 00 00 00 00
00000aac: 00 00 00 00 00 00 00 00 00 00 00 00 00 00 00 00
00000abc: 00 00 00 00 00 00 00 00 00 00 00 00 00 00 00 00
00000acc: 00 00 00 00 00 00 00 00 00 00 00 00 00 00 00 00
00000adc: 00 00 00 00 00 00 00 00 00 00 00 00 00 00 00 00
00000aec: 00 00 00 00 00 00 00 00 00 00 00 00 00 00 00 00
00000afc: 00 00 00 00 00 00 00 00 00 00 00 00 00 00 00 00

# UDB_0_1_1_CONFIG (count=128)
00000b0c: 00 00 00 00 00 00 00 00 00 00 00 00 00 00 00 00
00000b1c: 00 00 00 00 00 00 00 00 00 00 00 00 00 00 00 00
00000b2c: 00 00 00 00 00 00 00 00 00 00 00 00 00 00 00 00
00000b3c: 00 00 00 00 00 00 00 00 00 00 00 00 00 00 00 00
00000b4c: 00 00 00 00 00 00 00 00 00 00 00 00 00 00 00 00
00000b5c: 00 00 00 00 00 00 00 00 00 00 00 00 00 00 00 00
00000b6c: 00 00 00 00 00 00 00 00 00 00 00 00 00 00 00 00
00000b7c: 00 00 00 00 00 00 00 00 00 00 00 00 00 00 00 00

# UDB_0_1_0_CONFIG (count=128)
00000b8c: 00 00 00 00 00 00 00 00 00 00 00 00 00 00 00 00
00000b9c: 00 00 00 00 00 00 00 00 00 00 00 00 00 00 00 00
00000bac: 00 00 00 00 00 00 00 00 00 00 00 00 00 00 00 00
00000bbc: 00 00 00 00 00 00 00 00 00 00 00 00 00 00 00 00
00000bcc: 00 00 00 00 00 00 00 00 00 00 00 00 00 00 00 00
00000bdc: 00 00 00 00 00 00 00 00 00 00 00 00 00 00 00 00
00000bec: 00 00 00 00 00 00 00 00 00 00 00 00 00 00 00 00
00000bfc: 00 00 00 00 00 00 00 00 00 00 00 00 00 00 00 00

# UDB_0_0_0_CONFIG (count=128)
00000c0c: 00 00 00 00 00 00 00 00 00 00 00 00 00 00 00 00
00000c1c: 00 00 00 00 00 00 00 00 00 00 00 00 00 00 00 00
00000c2c: 00 00 00 00 00 00 00 00 00 00 00 00 00 00 00 00
00000c3c: 00 00 00 00 00 00 00 00 00 00 00 00 00 00 00 00
00000c4c: 00 00 00 00 00 00 00 00 00 00 00 00 00 00 00 00
00000c5c: 00 00 00 00 00 00 00 00 00 00 00 00 00 00 00 00
00000c6c: 00 00 00 00 00 00 00 00 00 00 00 00 00 00 00 00
00000c7c: 00 00 00 00 00 00 00 00 00 00 00 00 00 00 00 00

# UDB_0_0_1_CONFIG (count=128)
00000c8c: 00 00 00 00 00 00 00 00 00 00 00 00 00 00 00 00
00000c9c: 00 00 00 00 00 00 00 00 00 00 00 00 00 00 00 00
00000cac: 00 00 00 00 00 00 00 00 00 00 00 00 00 00 00 00
00000cbc: 00 00 00 00 00 00 00 00 00 00 00 00 00 00 00 00
00000ccc: 00 00 00 00 00 00 00 00 00 00 00 00 00 00 00 00
00000cdc: 00 00 00 00 00 00 00 00 00 00 00 00 00 00 00 00
00000cec: 00 00 00 00 00 00 00 00 00 00 00 00 00 00 00 00
00000cfc: 00 00 00 00 00 00 00 00 00 00 00 00 00 00 00 00

# UWRK_B0_WRK_DP_BITS (count=64)
00000d0c: 00 00 00 00 00 00 00 00 00 00 00 00 00 00 00 00
00000d1c: 00 00 00 00 00 00 00 00 00 00 00 00 00 00 00 00
00000d2c: 00 00 00 00 00 00 00 00 00 00 00 00 00 00 00 00
00000d3c: 00 00 00 00 00 00 00 00 00 00 00 00 00 00 00 00

# UWRK_B0_WRK_STATCTL_BITS + 0x00000070 (count=32)
00000d4c: 00 00 00 00 00 00 00 00 00 00 00 00 00 00 00 00
00000d5c: 00 00 00 00 00 00 00 00 00 00 00 00 00 00 00 00

# UWRK_B1_WRK_DP_BITS (count=64)
00000d6c: 00 00 00 00 00 00 00 00 00 00 00 00 00 00 00 00
00000d7c: 00 00 00 00 00 00 00 00 00 00 00 00 00 00 00 00
00000d8c: 00 00 00 00 00 00 00 00 00 00 00 00 00 00 00 00
00000d9c: 00 00 00 00 00 00 00 00 00 00 00 00 00 00 00 00

# UWRK_B1_WRK_STATCTL_BITS + 0x00000070 (count=32)
00000dac: 00 00 00 00 00 00 00 00 00 00 00 00 00 00 00 00
00000dbc: 00 00 00 00 00 00 00 00 00 00 00 00 00 00 00 00

# UCFG_BCTL1 (count=16)
00000dcc: 00 00 00 00 00 00 00 00 00 00 00 00 00 00 00 00

# UCFG_BCTL0 (count=16)
00000ddc: 00 00 00 00 00 00 00 00 00 00 00 00 00 00 00 00

# DSISWITCH_0_0 (count=128)
00000dec: 00 00 00 00 00 00 00 00 00 00 00 00 00 00 00 00
00000dfc: 00 00 00 00 00 00 00 00 00 00 00 00 00 00 00 00
00000e0c: 00 00 00 00 00 00 00 00 00 00 00 00 00 00 00 00
00000e1c: 00 00 00 00 00 00 00 00 00 00 00 00 00 00 00 00
00000e2c: 00 00 00 00 00 00 00 00 00 00 00 00 00 00 00 00
00000e3c: 00 00 00 00 00 00 00 00 00 00 00 00 00 00 00 00
00000e4c: 00 00 00 00 00 00 00 00 00 00 00 00 00 00 00 00
00000e5c: 00 00 00 00 00 00 00 00 00 00 00 00 00 00 00 00

# DSI0_0_HV_ROUTING + 0x00000080 (count=128)
00000e6c: 00 00 00 00 00 00 00 00 00 00 00 00 00 00 00 00
00000e7c: 00 00 00 00 00 00 00 00 00 00 00 00 00 00 00 00
00000e8c: 00 00 00 00 00 00 00 00 00 00 00 00 00 00 00 00
00000e9c: 00 00 00 00 00 00 00 00 00 00 00 00 00 00 00 00
00000eac: 00 00 00 00 00 00 00 00 00 00 00 00 00 00 00 00
00000ebc: 00 00 00 00 00 00 00 00 00 00 00 00 00 00 00 00
00000ecc: 00 00 00 00 00 00 00 00 00 00 00 00 00 00 00 00
00000edc: 00 00 00 00 00 00 00 00 00 00 00 00 00 00 00 00

# DSISWITCH_0_1 (count=128)
00000eec: 00 00 00 00 00 00 00 00 00 00 00 00 00 00 00 00
00000efc: 00 00 00 00 00 00 00 00 00 00 00 00 00 00 00 00
00000f0c: 00 00 00 00 00 00 00 00 00 00 00 00 00 00 00 00
00000f1c: 00 00 00 00 00 00 00 00 00 00 00 00 00 00 00 00
00000f2c: 00 00 00 00 00 00 00 00 00 00 00 00 00 00 00 00
00000f3c: 00 00 00 00 00 00 00 00 00 00 00 00 00 00 00 00
00000f4c: 00 00 00 00 00 00 00 00 00 00 00 00 00 00 00 00
00000f5c: 00 00 00 00 00 00 00 00 00 00 00 00 00 00 00 00

# DSI0_1_HV_ROUTING + 0x00000080 (count=128)
00000f6c: 00 00 00 00 00 00 00 00 00 00 00 00 00 00 00 00
00000f7c: 00 00 00 00 00 00 00 00 00 00 00 00 00 00 00 00
00000f8c: 00 00 00 00 00 00 00 00 00 00 00 00 00 00 00 00
00000f9c: 00 00 00 00 00 00 00 00 00 00 00 00 00 00 00 00
00000fac: 00 00 00 00 00 00 00 00 00 00 00 00 00 00 00 00
00000fbc: 00 00 00 00 00 00 00 00 00 00 00 00 00 00 00 00
00000fcc: 00 00 00 00 00 00 00 00 00 00 00 00 00 00 00 00
00000fdc: 00 00 00 00 00 00 00 00 00 00 00 00 00 00 00 00

# DSISWITCH_0_2 (count=128)
00000fec: 00 00 00 00 00 00 00 00 00 00 00 00 00 00 00 00
00000ffc: 00 00 00 00 00 00 00 00 00 00 00 00 00 00 00 00
0000100c: 00 00 00 00 00 00 00 00 00 00 00 00 00 00 00 00
0000101c: 00 00 00 00 00 00 00 00 00 00 00 00 00 00 00 00
0000102c: 00 00 00 00 00 00 00 00 00 00 00 00 00 00 00 00
0000103c: 00 00 00 00 00 00 00 00 00 00 00 00 00 00 00 00
0000104c: 00 00 00 00 00 00 00 00 00 00 00 00 00 00 00 00
0000105c: 00 00 00 00 00 00 00 00 00 00 00 00 00 00 00 00

# DSI0_2_HV_ROUTING + 0x00000080 (count=128)
0000106c: 00 00 00 00 00 00 00 00 00 00 00 00 00 00 00 00
0000107c: 00 00 00 00 00 00 00 00 00 00 00 00 00 00 00 00
0000108c: 00 00 00 00 00 00 00 00 00 00 00 00 00 00 00 00
0000109c: 00 00 00 00 00 00 00 00 00 00 00 00 00 00 00 00
000010ac: 00 00 00 00 00 00 00 00 00 00 00 00 00 00 00 00
000010bc: 00 00 00 00 00 00 00 00 00 00 00 00 00 00 00 00
000010cc: 00 00 00 00 00 00 00 00 00 00 00 00 00 00 00 00
000010dc: 00 00 00 00 00 00 00 00 00 00 00 00 00 00 00 00

# DSISWITCH_0_3 (count=128)
000010ec: 00 00 00 00 00 00 00 00 00 00 00 00 00 00 00 00
000010fc: 00 00 00 00 00 00 00 00 00 00 00 00 00 00 00 00
0000110c: 00 00 00 00 00 00 00 00 00 00 00 00 00 00 00 00
0000111c: 00 00 00 00 00 00 00 00 00 00 00 00 00 00 00 00
0000112c: 00 00 00 00 00 00 00 00 00 00 00 00 00 00 00 00
0000113c: 00 00 00 00 00 00 00 00 00 00 00 00 00 00 00 00
0000114c: 00 00 00 00 00 00 00 00 00 00 00 00 00 00 00 00
0000115c: 00 00 00 00 00 00 00 00 00 00 00 00 00 00 00 00

# DSI0_3_HV_ROUTING + 0x00000080 (count=128)
0000116c: 00 00 00 00 00 00 00 00 00 00 00 00 00 00 00 00
0000117c: 00 00 00 00 00 00 00 00 00 00 00 00 00 00 00 00
0000118c: 00 00 00 00 00 00 00 00 00 00 00 00 00 00 00 00
0000119c: 00 00 00 00 00 00 00 00 00 00 00 00 00 00 00 00
000011ac: 00 00 00 00 00 00 00 00 00 00 00 00 00 00 00 00
000011bc: 00 00 00 00 00 00 00 00 00 00 00 00 00 00 00 00
000011cc: 00 00 00 00 00 00 00 00 00 00 00 00 00 00 00 00
000011dc: 00 00 00 00 00 00 00 00 00 00 00 00 00 00 00 00

# DSISWITCH_0_4 (count=128)
000011ec: 00 00 00 00 00 00 00 00 00 00 00 00 00 00 00 00
000011fc: 00 00 00 00 00 00 00 00 00 00 00 00 00 00 00 00
0000120c: 00 00 00 00 00 00 00 00 00 00 00 00 00 00 00 00
0000121c: 00 00 00 00 00 00 00 00 00 00 00 00 00 00 00 00
0000122c: 00 00 00 00 00 00 00 00 00 00 00 00 00 00 00 00
0000123c: 00 00 00 00 00 00 00 00 00 00 00 00 00 00 00 00
0000124c: 00 00 00 00 00 00 00 00 00 00 00 00 00 00 00 00
0000125c: 00 00 00 00 00 00 00 00 00 00 00 00 00 00 00 00

# DSI0_4_HV_ROUTING + 0x00000080 (count=128)
0000126c: 00 00 00 00 00 00 00 00 00 00 00 00 00 00 00 00
0000127c: 00 00 00 00 00 00 00 00 00 00 00 00 00 00 00 00
0000128c: 00 00 00 00 00 00 00 00 00 00 00 00 00 00 00 00
0000129c: 00 00 00 00 00 00 00 00 00 00 00 00 00 00 00 00
000012ac: 00 00 00 00 00 00 00 00 00 00 00 00 00 00 00 00
000012bc: 00 00 00 00 00 00 00 00 00 00 00 00 00 00 00 00
000012cc: 00 00 00 00 00 00 00 00 00 00 00 00 00 00 00 00
000012dc: 00 00 00 00 00 00 00 00 00 00 00 00 00 00 00 00

# DSISWITCH_0_5 (count=128)
000012ec: 00 00 00 00 00 00 00 00 00 00 00 00 00 00 00 00
000012fc: 00 00 00 00 00 00 00 00 00 00 00 00 00 00 00 00
0000130c: 00 00 00 00 00 00 00 00 00 00 00 00 00 00 00 00
0000131c: 00 00 00 00 00 00 00 00 00 00 00 00 00 00 00 00
0000132c: 00 00 00 00 00 00 00 00 00 00 00 00 00 00 00 00
0000133c: 00 00 00 00 00 00 00 00 00 00 00 00 00 00 00 00
0000134c: 00 00 00 00 00 00 00 00 00 00 00 00 00 00 00 00
0000135c: 00 00 00 00 00 00 00 00 00 00 00 00 00 00 00 00

# DSI0_5_HV_ROUTING + 0x00000080 (count=128)
0000136c: 00 00 00 00 00 00 00 00 00 00 00 00 00 00 00 00
0000137c: 00 00 00 00 00 00 00 00 00 00 00 00 00 00 00 00
0000138c: 00 00 00 00 00 00 00 00 00 00 00 00 00 00 00 00
0000139c: 00 00 00 00 00 00 00 00 00 00 00 00 00 00 00 00
000013ac: 00 00 00 00 00 00 00 00 00 00 00 00 00 00 00 00
000013bc: 00 00 00 00 00 00 00 00 00 00 00 00 00 00 00 00
000013cc: 00 00 00 00 00 00 00 00 00 00 00 00 00 00 00 00
000013dc: 00 00 00 00 00 00 00 00 00 00 00 00 00 00 00 00

# UDBSWITCH_0_0 (count=128)
000013ec: 00 00 00 00 00 00 00 00 00 00 00 00 00 00 00 00
000013fc: 00 00 00 00 00 00 00 00 00 00 00 00 00 00 00 00
0000140c: 00 00 00 00 00 00 00 00 00 00 00 00 00 00 00 00
0000141c: 00 00 00 00 00 00 00 00 00 00 00 00 00 00 00 00
0000142c: 00 00 00 00 00 00 00 00 00 00 00 00 00 00 00 00
0000143c: 00 00 00 00 00 00 00 00 00 00 00 00 00 00 00 00
0000144c: 00 00 00 00 00 00 00 00 00 00 00 00 00 00 00 00
0000145c: 00 00 00 00 00 00 00 00 00 00 00 00 00 00 00 00

# UDB_1_0_HV_ROUTING + 0x00000080 (count=128)
0000146c: 00 00 00 00 00 00 00 00 00 00 00 00 00 00 00 00
0000147c: 00 00 00 00 00 00 00 00 00 00 00 00 00 00 00 00
0000148c: 00 00 00 00 00 00 00 00 00 00 00 00 00 00 00 00
0000149c: 00 00 00 00 00 00 00 00 00 00 00 00 00 00 00 00
000014ac: 00 00 00 00 00 00 00 00 00 00 00 00 00 00 00 00
000014bc: 00 00 00 00 00 00 00 00 00 00 00 00 00 00 00 00
000014cc: 00 00 00 00 00 00 00 00 00 00 00 00 00 00 00 00
000014dc: 00 00 00 00 00 00 00 00 00 00 00 00 00 00 00 00

# UDBSWITCH_1_0 (count=128)
000014ec: 00 00 00 00 00 00 00 00 00 00 00 00 00 00 00 00
000014fc: 00 00 00 00 00 00 00 00 00 00 00 00 00 00 00 00
0000150c: 00 00 00 00 00 00 00 00 00 00 00 00 00 00 00 00
0000151c: 00 00 00 00 00 00 00 00 00 00 00 00 00 00 00 00
0000152c: 00 00 00 00 00 00 00 00 00 00 00 00 00 00 00 00
0000153c: 00 00 00 00 00 00 00 00 00 00 00 00 00 00 00 00
0000154c: 00 00 00 00 00 00 00 00 00 00 00 00 00 00 00 00
0000155c: 00 00 00 00 00 00 00 00 00 00 00 00 00 00 00 00

# UDB_2_0_HV_ROUTING + 0x00000080 (count=128)
0000156c: 00 00 00 00 00 00 00 00 00 00 00 00 00 00 00 00
0000157c: 00 00 00 00 00 00 00 00 00 00 00 00 00 00 00 00
0000158c: 00 00 00 00 00 00 00 00 00 00 00 00 00 00 00 00
0000159c: 00 00 00 00 00 00 00 00 00 00 00 00 00 00 00 00
000015ac: 00 00 00 00 00 00 00 00 00 00 00 00 00 00 00 00
000015bc: 00 00 00 00 00 00 00 00 00 00 00 00 00 00 00 00
000015cc: 00 00 00 00 00 00 00 00 00 00 00 00 00 00 00 00
000015dc: 00 00 00 00 00 00 00 00 00 00 00 00 00 00 00 00

# UDBSWITCH_0_1 (count=128)
000015ec: 00 00 00 00 00 00 00 00 00 00 00 00 00 00 00 00
000015fc: 00 00 00 00 00 00 00 00 00 00 00 00 00 00 00 00
0000160c: 00 00 00 00 00 00 00 00 00 00 00 00 00 00 00 00
0000161c: 00 00 00 00 00 00 00 00 00 00 00 00 00 00 00 00
0000162c: 00 00 00 00 00 00 00 00 00 00 00 00 00 00 00 00
0000163c: 00 00 00 00 00 00 00 00 00 00 00 00 00 00 00 00
0000164c: 00 00 00 00 00 00 00 00 00 00 00 00 00 00 00 00
0000165c: 00 00 00 00 00 00 00 00 00 00 00 00 00 00 00 00

# UDB_1_1_HV_ROUTING + 0x00000080 (count=128)
0000166c: 00 00 00 00 00 00 00 00 00 00 00 00 00 00 00 00
0000167c: 00 00 00 00 00 00 00 00 00 00 00 00 00 00 00 00
0000168c: 00 00 00 00 00 00 00 00 00 00 00 00 00 00 00 00
0000169c: 00 00 00 00 00 00 00 00 00 00 00 00 00 00 00 00
000016ac: 00 00 00 00 00 00 00 00 00 00 00 00 00 00 00 00
000016bc: 00 00 00 00 00 00 00 00 00 00 00 00 00 00 00 00
000016cc: 00 00 00 00 00 00 00 00 00 00 00 00 00 00 00 00
000016dc: 00 00 00 00 00 00 00 00 00 00 00 00 00 00 00 00

# UDBSWITCH_1_1 (count=128)
000016ec: 00 00 00 00 00 00 00 00 00 00 00 00 00 00 00 00
000016fc: 00 00 00 00 00 00 00 00 00 00 00 00 00 00 00 00
0000170c: 00 00 00 00 00 00 00 00 00 00 00 00 00 00 00 00
0000171c: 00 00 00 00 00 00 00 00 00 00 00 00 00 00 00 00
0000172c: 00 00 00 00 00 00 00 00 00 00 00 00 00 00 00 00
0000173c: 00 00 00 00 00 00 00 00 00 00 00 00 00 00 00 00
0000174c: 00 00 00 00 00 00 00 00 00 00 00 00 00 00 00 00
0000175c: 00 00 00 00 00 00 00 00 00 00 00 00 00 00 00 00

# UDB_2_1_HV_ROUTING + 0x00000080 (count=128)
0000176c: 00 00 00 00 00 00 00 00 00 00 00 00 00 00 00 00
0000177c: 00 00 00 00 00 00 00 00 00 00 00 00 00 00 00 00
0000178c: 00 00 00 00 00 00 00 00 00 00 00 00 00 00 00 00
0000179c: 00 00 00 00 00 00 00 00 00 00 00 00 00 00 00 00
000017ac: 00 00 00 00 00 00 00 00 00 00 00 00 00 00 00 00
000017bc: 00 00 00 00 00 00 00 00 00 00 00 00 00 00 00 00
000017cc: 00 00 00 00 00 00 00 00 00 00 00 00 00 00 00 00
000017dc: 00 00 00 00 00 00 00 00 00 00 00 00 00 00 00 00

# UDBSWITCH_0_2 (count=128)
000017ec: 00 00 00 00 00 00 00 00 00 00 00 00 00 00 00 00
000017fc: 00 00 00 00 00 00 00 00 00 00 00 00 00 00 00 00
0000180c: 00 00 00 00 00 00 00 00 00 00 00 00 00 00 00 00
0000181c: 00 00 00 00 00 00 00 00 00 00 00 00 00 00 00 00
0000182c: 00 00 00 00 00 00 00 00 00 00 00 00 00 00 00 00
0000183c: 00 00 00 00 00 00 00 00 00 00 00 00 00 00 00 00
0000184c: 00 00 00 00 00 00 00 00 00 00 00 00 00 00 00 00
0000185c: 00 00 00 00 00 00 00 00 00 00 00 00 00 00 00 00

# UDB_1_2_HV_ROUTING + 0x00000080 (count=128)
0000186c: 00 00 00 00 00 00 00 00 00 00 00 00 00 00 00 00
0000187c: 00 00 00 00 00 00 00 00 00 00 00 00 00 00 00 00
0000188c: 00 00 00 00 00 00 00 00 00 00 00 00 00 00 00 20
0000189c: 00 00 00 00 00 00 00 00 00 00 00 00 00 00 00 00
000018ac: 00 00 00 00 00 00 00 00 00 00 00 00 00 00 00 00
000018bc: 00 00 00 00 00 00 00 00 00 00 00 00 00 00 00 00
000018cc: 00 00 00 00 00 00 00 00 00 00 00 00 00 00 00 00
000018dc: 00 00 00 00 00 00 00 00 00 00 00 00 00 00 00 00

# UDBSWITCH_1_2 (count=128)
000018ec: 00 00 00 00 00 00 00 00 00 00 00 00 00 00 00 00
000018fc: 00 00 00 00 00 00 00 00 00 00 00 00 00 00 00 00
0000190c: 00 00 00 00 00 00 00 00 00 00 00 00 00 00 00 00
0000191c: 00 00 00 00 00 00 00 00 00 00 00 00 00 00 00 00
0000192c: 00 00 00 00 00 00 00 00 00 00 00 00 00 00 00 00
0000193c: 00 00 00 00 00 00 00 00 00 00 00 00 00 00 00 00
0000194c: 00 00 00 00 00 00 00 00 00 00 00 00 00 00 00 00
0000195c: 00 00 00 00 00 00 00 00 00 00 00 00 00 00 00 00

# UDB_2_2_HV_ROUTING + 0x00000080 (count=128)
0000196c: 00 00 00 00 00 00 00 00 00 00 00 00 00 00 00 00
0000197c: 00 00 00 00 00 00 00 00 00 00 00 00 00 00 00 00
0000198c: 00 00 00 00 00 00 00 00 00 00 00 00 00 00 00 00
0000199c: 00 00 00 00 00 00 00 00 00 00 00 00 00 00 00 00
000019ac: 00 00 00 00 00 00 00 00 00 00 00 00 00 00 00 00
000019bc: 00 00 00 00 00 00 00 00 00 00 00 00 00 00 00 00
000019cc: 00 00 00 00 00 00 00 00 00 00 00 00 00 00 08 00
000019dc: 00 00 00 00 00 00 00 00 00 00 00 00 00 00 00 00

# UDBSWITCH_0_3 (count=128)
000019ec: 00 00 00 00 00 00 00 00 00 00 00 00 00 00 00 00
000019fc: 00 00 00 00 00 00 00 00 00 00 00 00 00 00 00 20
00001a0c: 00 00 00 00 00 00 00 00 00 00 00 00 00 00 00 00
00001a1c: 00 00 00 00 00 00 00 00 00 00 00 00 00 00 00 00
00001a2c: 00 00 00 00 00 00 00 00 00 00 00 00 00 00 00 00
00001a3c: 00 00 00 00 00 00 00 00 00 00 00 00 00 00 00 00
00001a4c: 00 00 00 00 00 00 00 00 00 00 00 00 00 00 00 00
00001a5c: 00 00 00 00 00 00 00 00 00 00 00 00 00 00 00 00

# UDB_1_3_HV_ROUTING + 0x00000080 (count=128)
00001a6c: 00 00 00 00 00 00 00 00 00 00 00 00 00 00 00 00
00001a7c: 00 00 00 00 00 00 00 00 00 00 00 00 00 00 00 00
00001a8c: 00 00 00 00 00 00 00 00 00 00 00 00 00 00 00 00
00001a9c: 00 00 00 00 00 00 00 00 00 00 00 00 00 00 00 00
00001aac: 00 00 00 00 00 00 00 00 00 00 00 00 00 00 00 00
00001abc: 00 00 00 00 00 00 00 00 00 00 00 00 00 00 00 00
00001acc: 00 00 00 00 00 00 00 00 00 00 00 00 00 00 00 00
00001adc: 00 00 00 00 00 00 00 00 00 00 00 00 00 00 00 00

# UDBSWITCH_1_3 (count=128)
00001aec: 00 00 00 00 00 00 00 00 00 00 00 00 00 00 00 00
00001afc: 00 00 00 00 00 00 00 00 00 00 00 00 00 00 00 00
00001b0c: 00 00 00 00 00 00 00 00 00 00 00 00 00 00 00 00
00001b1c: 00 00 00 00 00 00 00 00 00 00 00 00 00 00 00 00
00001b2c: 00 00 00 00 00 00 00 00 00 00 00 00 00 00 00 00
00001b3c: 00 00 00 00 00 00 00 00 00 00 00 00 00 00 00 00
00001b4c: 00 00 00 00 00 00 00 00 00 00 00 00 00 00 00 00
00001b5c: 00 00 00 00 00 00 00 00 00 00 00 00 00 00 00 00

# UDB_2_3_HV_ROUTING + 0x00000080 (count=128)
00001b6c: 00 00 00 00 00 00 00 00 00 00 00 00 00 00 00 00
00001b7c: 00 00 00 00 00 00 00 00 00 00 00 00 00 00 00 00
00001b8c: 00 00 00 00 00 00 00 00 00 00 00 00 00 00 00 00
00001b9c: 00 00 00 00 00 00 00 00 00 00 00 00 00 00 00 00
00001bac: 00 00 00 00 00 00 00 00 00 00 00 00 00 00 00 00
00001bbc: 00 00 00 00 00 00 00 00 00 00 00 00 00 00 00 00
00001bcc: 00 00 00 00 00 00 00 00 00 00 00 00 00 00 00 00
00001bdc: 00 00 00 00 00 00 00 00 00 00 00 00 00 00 00 00

# UDBSWITCH_0_4 (count=128)
00001bec: 00 00 00 00 00 00 00 00 00 00 00 00 00 00 00 00
00001bfc: 00 00 00 00 00 00 00 00 00 00 00 00 00 00 00 00
00001c0c: 00 00 00 00 00 00 00 00 00 00 00 00 00 00 00 00
00001c1c: 00 00 00 00 00 00 00 00 00 00 00 00 00 00 00 00
00001c2c: 00 00 00 00 00 00 00 00 00 00 00 00 00 00 00 00
00001c3c: 00 00 00 00 00 00 00 00 00 00 00 00 00 00 00 00
00001c4c: 00 00 00 00 00 00 00 00 00 00 00 00 00 00 00 00
00001c5c: 00 00 00 00 00 00 00 00 00 00 00 00 00 00 00 00

# UDB_1_4_HV_ROUTING + 0x00000080 (count=128)
00001c6c: 00 00 00 00 00 00 00 00 00 00 00 00 00 00 00 00
00001c7c: 00 00 00 00 00 00 00 00 00 00 00 00 00 00 00 00
00001c8c: 00 00 00 00 00 00 00 00 00 00 00 00 00 00 00 00
00001c9c: 00 00 00 00 00 00 00 00 00 00 00 00 00 00 00 00
00001cac: 00 00 00 00 00 00 00 00 00 00 00 00 00 00 00 00
00001cbc: 00 00 00 00 00 00 00 00 00 00 00 00 00 00 00 00
00001ccc: 00 00 00 00 00 00 00 00 00 00 00 00 00 00 00 00
00001cdc: 00 00 00 00 00 00 00 00 00 00 00 00 00 00 00 00

# UDBSWITCH_1_4 (count=128)
00001cec: 00 00 00 00 00 00 00 00 00 00 00 00 00 00 00 00
00001cfc: 00 00 00 00 00 00 00 00 00 00 00 00 00 00 00 00
00001d0c: 00 00 00 00 00 00 00 00 00 00 00 00 00 00 00 00
00001d1c: 00 00 00 00 00 00 00 00 00 00 00 00 00 00 00 00
00001d2c: 00 00 00 00 00 00 00 00 00 00 00 00 00 00 00 00
00001d3c: 00 00 00 00 00 00 00 00 00 00 00 00 00 00 00 00
00001d4c: 00 00 00 00 00 00 00 00 00 00 00 00 00 00 00 00
00001d5c: 00 00 00 00 00 00 00 00 00 00 00 00 00 00 00 00

# UDB_2_4_HV_ROUTING + 0x00000080 (count=128)
00001d6c: 00 00 00 00 00 00 00 00 00 00 00 00 00 00 00 00
00001d7c: 00 00 00 00 00 00 00 00 00 00 00 00 00 00 00 00
00001d8c: 00 00 00 00 00 00 00 00 00 00 00 00 00 00 00 00
00001d9c: 00 00 00 00 00 00 00 00 00 00 00 00 00 00 00 00
00001dac: 00 00 00 00 00 00 00 00 00 00 00 00 00 00 00 00
00001dbc: 00 00 00 00 00 00 00 00 00 00 00 00 00 00 00 00
00001dcc: 00 00 00 00 00 00 00 00 00 00 00 00 00 00 00 00
00001ddc: 00 00 00 00 00 00 00 00 00 00 00 00 00 00 00 00

# UDBSWITCH_0_5 (count=128)
00001dec: 00 00 00 00 00 00 00 00 00 00 00 00 00 00 00 00
00001dfc: 00 00 00 00 00 00 00 00 00 00 00 00 00 00 00 00
00001e0c: 00 00 00 00 00 00 00 00 00 00 00 00 00 00 00 00
00001e1c: 00 00 00 00 00 00 00 00 00 00 00 00 00 00 00 00
00001e2c: 00 00 00 00 00 00 00 00 00 00 00 00 00 00 00 00
00001e3c: 00 00 00 00 00 00 00 00 00 00 00 00 00 00 00 00
00001e4c: 00 00 00 00 00 00 00 00 00 00 00 00 00 00 00 00
00001e5c: 00 00 00 00 00 00 00 00 00 00 00 00 00 00 00 00

# UDB_1_5_HV_ROUTING + 0x00000080 (count=128)
00001e6c: 00 00 00 00 00 00 00 00 00 00 00 00 00 00 00 00
00001e7c: 00 00 00 00 00 00 00 00 00 00 00 00 00 00 00 00
00001e8c: 00 00 00 00 00 00 00 00 00 00 00 00 00 00 00 00
00001e9c: 00 00 00 00 00 00 00 00 00 00 00 00 00 00 00 00
00001eac: 00 00 00 00 00 00 00 00 00 00 00 00 00 00 00 00
00001ebc: 00 00 00 00 00 00 00 00 00 00 00 00 00 00 00 00
00001ecc: 00 00 00 00 00 00 00 00 00 00 00 00 00 00 00 00
00001edc: 00 00 00 00 00 00 00 00 00 00 00 00 00 00 00 00

# UDBSWITCH_1_5 (count=128)
00001eec: 00 00 00 00 00 00 00 00 00 00 00 00 00 00 00 00
00001efc: 00 00 00 00 00 00 00 00 00 00 00 00 00 00 00 00
00001f0c: 00 00 00 00 00 00 00 00 00 00 00 00 00 00 00 00
00001f1c: 00 00 00 00 00 00 00 00 00 00 00 00 00 00 00 00
00001f2c: 00 00 00 00 00 00 00 00 00 00 00 00 00 00 00 00
00001f3c: 00 00 00 00 00 00 00 00 00 00 00 00 00 00 00 00
00001f4c: 00 00 00 00 00 00 00 00 00 00 00 00 00 00 00 00
00001f5c: 00 00 00 00 00 00 00 00 00 00 00 00 00 00 00 00

# UDB_2_5_HV_ROUTING + 0x00000080 (count=128)
00001f6c: 00 00 00 00 00 00 00 00 00 00 00 00 00 00 00 00
00001f7c: 00 00 00 00 00 00 00 00 00 00 00 00 00 00 00 00
00001f8c: 00 00 00 00 00 00 00 00 00 00 00 00 00 00 00 00
00001f9c: 00 00 00 00 00 00 00 00 00 00 00 00 00 00 00 00
00001fac: 00 00 00 00 00 00 00 00 00 00 00 00 00 00 00 00
00001fbc: 00 00 00 00 00 00 00 00 00 00 00 00 00 00 00 00
00001fcc: 00 00 00 00 00 00 00 00 00 00 00 00 00 00 00 00
00001fdc: 00 00 00 00 00 00 00 00 00 00 00 00 00 00 00 00

# DSISWITCH_1_0 (count=128)
00001fec: 00 00 00 00 00 00 00 00 00 00 00 00 00 80 00 00
00001ffc: 00 00 00 00 00 00 00 00 00 00 00 00 00 00 00 00
0000200c: 00 00 00 00 00 00 00 00 00 00 00 00 00 00 00 00
0000201c: 00 00 00 00 00 00 00 00 00 00 00 00 00 00 00 00
0000202c: 00 00 00 00 00 00 00 00 00 00 00 00 00 00 00 00
0000203c: 00 00 00 00 00 00 00 00 00 00 00 00 00 00 00 00
0000204c: 00 00 00 00 00 00 00 00 00 00 00 00 00 00 00 00
0000205c: 00 00 00 00 00 00 00 00 00 00 00 00 00 00 00 00

# DSI3_0_HV_ROUTING + 0x00000080 (count=128)
0000206c: 00 00 00 00 00 00 00 00 00 00 00 00 00 00 00 00
0000207c: 00 00 00 00 00 00 00 00 00 00 00 00 00 00 00 00
0000208c: 00 00 00 00 00 80 00 00 00 00 00 00 00 00 00 00
0000209c: 00 00 00 00 00 00 00 00 00 00 00 00 00 00 00 00
000020ac: 00 00 80 00 00 00 00 00 00 00 00 00 00 00 00 00
000020bc: 00 00 00 00 00 00 00 00 00 00 00 00 00 00 00 00
000020cc: 00 00 00 00 00 00 00 00 00 00 00 00 00 00 00 00
000020dc: 00 00 00 00 00 00 00 00 00 00 00 00 00 00 00 00

# DSISWITCH_1_1 (count=128)
000020ec: 00 00 00 00 00 00 00 00 00 00 00 00 00 00 00 00
000020fc: 00 00 00 00 00 00 00 00 00 00 00 00 00 00 00 00
0000210c: 00 00 00 00 00 00 00 00 00 00 00 00 00 00 00 00
0000211c: 00 00 00 00 00 00 00 00 00 00 00 00 00 00 00 00
0000212c: 00 00 00 00 00 00 00 00 00 00 00 00 00 00 00 00
0000213c: 00 00 00 00 00 00 00 00 00 00 00 00 00 00 00 00
0000214c: 00 00 00 00 00 00 00 00 00 00 00 00 00 00 00 00
0000215c: 00 00 00 00 00 00 00 00 00 00 00 00 00 00 00 00

# DSI3_1_HV_ROUTING + 0x00000080 (count=128)
0000216c: 00 00 00 00 00 00 00 00 00 00 00 00 00 00 00 00
0000217c: 00 00 00 00 00 00 00 00 00 00 00 00 00 00 00 00
0000218c: 00 00 00 00 00 80 00 00 00 00 00 00 00 00 00 00
0000219c: 00 00 00 00 00 00 00 00 00 00 00 00 00 00 00 00
000021ac: 00 00 00 00 00 00 00 00 00 00 00 00 00 00 00 00
000021bc: 00 00 00 00 00 00 00 00 00 00 00 00 00 00 00 00
000021cc: 00 00 00 00 00 00 00 00 00 00 00 00 00 00 00 00
000021dc: 00 00 00 00 00 00 00 00 00 00 00 00 00 00 00 00

# DSISWITCH_1_2 (count=128)
000021ec: 00 00 00 00 00 00 00 00 00 00 00 00 00 00 00 00
000021fc: 00 00 00 00 00 00 00 00 00 00 00 00 00 00 00 00
0000220c: 00 00 00 00 00 00 00 00 00 00 00 00 00 00 00 00
0000221c: 00 00 00 00 00 00 00 00 00 00 00 00 00 00 00 00
0000222c: 00 00 00 00 00 00 00 00 00 00 00 00 00 00 00 00
0000223c: 00 00 00 00 00 00 00 00 00 00 00 00 00 00 00 00
0000224c: 00 00 00 00 00 00 00 00 00 00 00 00 00 00 00 00
0000225c: 00 00 00 00 00 00 00 00 00 00 00 00 00 00 00 00

# DSI3_2_HV_ROUTING + 0x00000080 (count=128)
0000226c: 00 00 00 00 00 00 00 00 00 00 00 00 00 00 00 00
0000227c: 00 00 00 00 00 00 00 00 00 00 00 00 00 00 00 00
0000228c: 00 00 00 00 00 80 00 00 00 00 00 00 00 00 00 01
0000229c: 00 00 00 00 00 00 00 00 00 00 00 00 00 00 00 00
000022ac: 00 00 00 00 00 00 00 00 00 00 00 00 00 00 00 00
000022bc: 00 00 00 00 00 00 00 00 00 00 00 00 00 00 00 00
000022cc: 00 00 00 00 00 00 00 00 00 00 00 00 00 00 10 00
000022dc: 00 00 00 00 00 00 00 00 00 00 00 00 00 00 00 00

# DSISWITCH_1_3 (count=128)
000022ec: 00 00 00 00 00 00 00 00 00 00 00 00 00 00 00 00
000022fc: 00 00 80 00 00 00 00 00 00 00 00 00 00 00 00 00
0000230c: 00 00 00 00 00 00 00 00 00 00 00 00 00 00 00 00
0000231c: 00 00 00 00 00 00 00 00 00 00 00 00 00 00 00 00
0000232c: 00 00 00 00 00 00 00 00 00 00 00 00 00 00 00 00
0000233c: 00 00 00 00 00 00 00 00 00 00 00 00 00 00 00 00
0000234c: 00 00 00 02 00 00 00 00 00 00 00 00 00 00 00 00
0000235c: 00 00 00 00 00 00 00 00 00 00 00 00 00 00 00 00

# DSI3_3_HV_ROUTING + 0x00000080 (count=128)
0000236c: 00 00 00 00 00 00 00 00 00 00 00 00 00 00 00 00
0000237c: 00 00 00 00 00 00 00 00 00 00 00 00 00 00 00 00
0000238c: 00 00 00 00 00 80 80 00 00 00 00 00 00 00 00 00
0000239c: 00 00 00 00 00 00 00 00 00 00 00 00 00 00 00 00
000023ac: 00 00 00 00 10 00 00 00 00 00 00 00 00 00 00 00
000023bc: 00 00 00 00 00 00 40 00 00 00 00 00 00 00 00 00
000023cc: 00 00 00 00 00 00 00 00 00 00 00 00 00 00 00 00
000023dc: 00 00 00 00 00 00 00 00 00 00 00 00 00 00 00 00

# DSISWITCH_1_4 (count=128)
000023ec: 00 00 00 00 00 00 00 00 00 00 00 00 00 00 00 00
000023fc: 00 00 00 00 00 00 00 00 00 00 00 00 00 00 00 00
0000240c: 00 00 00 00 00 00 00 00 00 00 00 00 00 00 00 00
0000241c: 00 00 00 00 00 00 00 00 00 00 00 00 00 00 00 00
0000242c: 00 00 00 00 00 00 00 00 00 00 00 00 00 00 00 00
0000243c: 00 00 00 00 00 00 00 00 00 00 00 00 00 00 00 00
0000244c: 00 00 00 00 00 00 00 00 00 00 00 00 00 00 00 00
0000245c: 00 00 00 00 00 00 00 00 00 00 00 00 00 00 00 00

# DSI3_4_HV_ROUTING + 0x00000080 (count=128)
0000246c: 00 00 00 00 00 00 00 00 00 00 00 00 00 00 00 00
0000247c: 00 00 00 00 00 00 00 00 00 00 00 00 00 00 00 00
0000248c: 00 00 00 00 00 80 80 00 00 00 00 00 00 00 00 00
0000249c: 00 00 00 00 00 00 00 00 00 00 00 00 00 00 00 00
000024ac: 00 00 00 00 00 00 00 00 00 00 00 00 00 00 00 00
000024bc: 00 00 00 00 00 00 00 00 00 00 00 00 00 00 00 00
000024cc: 00 00 00 00 00 00 00 00 00 00 00 00 00 00 00 00
000024dc: 00 00 00 00 00 00 00 00 00 00 00 00 00 00 00 00

# DSISWITCH_1_5 (count=128)
000024ec: 00 00 00 00 00 00 00 00 00 00 00 00 00 00 00 00
000024fc: 00 00 00 00 00 00 00 00 00 00 00 00 00 00 00 00
0000250c: 00 00 00 00 00 00 00 00 00 00 00 00 00 00 00 00
0000251c: 00 80 00 00 00 00 80 00 00 00 00 00 00 00 00 00
0000252c: 00 00 00 00 00 00 00 00 00 00 00 00 00 00 00 00
0000253c: 00 00 00 00 00 00 00 00 00 00 00 00 00 00 00 00
0000254c: 00 00 00 00 00 00 00 00 00 00 00 00 00 00 00 00
0000255c: 00 00 00 00 00 00 00 00 00 00 00 00 00 00 00 00

# DSI3_5_HV_ROUTING + 0x00000080 (count=128)
0000256c: 00 00 00 00 00 00 00 00 00 00 00 00 00 00 00 00
0000257c: 00 00 00 00 00 00 00 00 00 00 00 00 00 00 00 00
0000258c: 00 00 00 00 00 00 00 00 00 00 00 00 00 00 00 00
0000259c: 00 00 00 00 00 00 00 00 00 00 00 00 00 00 00 00
000025ac: 00 00 00 00 00 00 00 00 00 00 00 00 30 00 00 00
000025bc: 00 00 00 00 00 00 00 00 00 00 00 00 00 00 00 00
000025cc: 00 00 00 00 00 00 00 00 00 00 00 00 00 00 00 00
000025dc: 00 00 00 00 00 00 00 00 00 00 00 00 00 00 00 00

