ARM GAS  C:\Users\MATEUS~1\AppData\Local\Temp\cc8IRglA.s 			page 1


   1              		.syntax unified
   2              		.cpu cortex-m3
   3              		.fpu softvfp
   4              		.eabi_attribute 20, 1
   5              		.eabi_attribute 21, 1
   6              		.eabi_attribute 23, 3
   7              		.eabi_attribute 24, 1
   8              		.eabi_attribute 25, 1
   9              		.eabi_attribute 26, 1
  10              		.eabi_attribute 30, 1
  11              		.eabi_attribute 34, 1
  12              		.eabi_attribute 18, 4
  13              		.thumb
  14              		.syntax unified
  15              		.file	"LCD_Char_1_LCDPort.c"
  16              		.text
  17              	.Ltext0:
  18              		.cfi_sections	.debug_frame
  19              		.section	.text.LCD_Char_1_LCDPort_Write,"ax",%progbits
  20              		.align	2
  21              		.global	LCD_Char_1_LCDPort_Write
  22              		.thumb
  23              		.thumb_func
  24              		.type	LCD_Char_1_LCDPort_Write, %function
  25              	LCD_Char_1_LCDPort_Write:
  26              	.LFB0:
  27              		.file 1 "Generated_Source\\PSoC5\\LCD_Char_1_LCDPort.c"
   1:Generated_Source\PSoC5/LCD_Char_1_LCDPort.c **** /*******************************************************************************
   2:Generated_Source\PSoC5/LCD_Char_1_LCDPort.c **** * File Name: LCD_Char_1_LCDPort.c  
   3:Generated_Source\PSoC5/LCD_Char_1_LCDPort.c **** * Version 2.20
   4:Generated_Source\PSoC5/LCD_Char_1_LCDPort.c **** *
   5:Generated_Source\PSoC5/LCD_Char_1_LCDPort.c **** * Description:
   6:Generated_Source\PSoC5/LCD_Char_1_LCDPort.c **** *  This file contains API to enable firmware control of a Pins component.
   7:Generated_Source\PSoC5/LCD_Char_1_LCDPort.c **** *
   8:Generated_Source\PSoC5/LCD_Char_1_LCDPort.c **** * Note:
   9:Generated_Source\PSoC5/LCD_Char_1_LCDPort.c **** *
  10:Generated_Source\PSoC5/LCD_Char_1_LCDPort.c **** ********************************************************************************
  11:Generated_Source\PSoC5/LCD_Char_1_LCDPort.c **** * Copyright 2008-2015, Cypress Semiconductor Corporation.  All rights reserved.
  12:Generated_Source\PSoC5/LCD_Char_1_LCDPort.c **** * You may use this file only in accordance with the license, terms, conditions, 
  13:Generated_Source\PSoC5/LCD_Char_1_LCDPort.c **** * disclaimers, and limitations in the end user license agreement accompanying 
  14:Generated_Source\PSoC5/LCD_Char_1_LCDPort.c **** * the software package with which this file was provided.
  15:Generated_Source\PSoC5/LCD_Char_1_LCDPort.c **** *******************************************************************************/
  16:Generated_Source\PSoC5/LCD_Char_1_LCDPort.c **** 
  17:Generated_Source\PSoC5/LCD_Char_1_LCDPort.c **** #include "cytypes.h"
  18:Generated_Source\PSoC5/LCD_Char_1_LCDPort.c **** #include "LCD_Char_1_LCDPort.h"
  19:Generated_Source\PSoC5/LCD_Char_1_LCDPort.c **** 
  20:Generated_Source\PSoC5/LCD_Char_1_LCDPort.c **** /* APIs are not generated for P15[7:6] on PSoC 5 */
  21:Generated_Source\PSoC5/LCD_Char_1_LCDPort.c **** #if !(CY_PSOC5A &&\
  22:Generated_Source\PSoC5/LCD_Char_1_LCDPort.c **** 	 LCD_Char_1_LCDPort__PORT == 15 && ((LCD_Char_1_LCDPort__MASK & 0xC0) != 0))
  23:Generated_Source\PSoC5/LCD_Char_1_LCDPort.c **** 
  24:Generated_Source\PSoC5/LCD_Char_1_LCDPort.c **** 
  25:Generated_Source\PSoC5/LCD_Char_1_LCDPort.c **** /*******************************************************************************
  26:Generated_Source\PSoC5/LCD_Char_1_LCDPort.c **** * Function Name: LCD_Char_1_LCDPort_Write
  27:Generated_Source\PSoC5/LCD_Char_1_LCDPort.c **** ****************************************************************************//**
  28:Generated_Source\PSoC5/LCD_Char_1_LCDPort.c **** *
  29:Generated_Source\PSoC5/LCD_Char_1_LCDPort.c **** * \brief Writes the value to the physical port (data output register), masking
  30:Generated_Source\PSoC5/LCD_Char_1_LCDPort.c **** *  and shifting the bits appropriately. 
ARM GAS  C:\Users\MATEUS~1\AppData\Local\Temp\cc8IRglA.s 			page 2


  31:Generated_Source\PSoC5/LCD_Char_1_LCDPort.c **** *
  32:Generated_Source\PSoC5/LCD_Char_1_LCDPort.c **** * The data output register controls the signal applied to the physical pin in 
  33:Generated_Source\PSoC5/LCD_Char_1_LCDPort.c **** * conjunction with the drive mode parameter. This function avoids changing 
  34:Generated_Source\PSoC5/LCD_Char_1_LCDPort.c **** * other bits in the port by using the appropriate method (read-modify-write or
  35:Generated_Source\PSoC5/LCD_Char_1_LCDPort.c **** * bit banding).
  36:Generated_Source\PSoC5/LCD_Char_1_LCDPort.c **** *
  37:Generated_Source\PSoC5/LCD_Char_1_LCDPort.c **** * <b>Note</b> This function should not be used on a hardware digital output pin 
  38:Generated_Source\PSoC5/LCD_Char_1_LCDPort.c **** * as it is driven by the hardware signal attached to it.
  39:Generated_Source\PSoC5/LCD_Char_1_LCDPort.c **** *
  40:Generated_Source\PSoC5/LCD_Char_1_LCDPort.c **** * \param value
  41:Generated_Source\PSoC5/LCD_Char_1_LCDPort.c **** *  Value to write to the component instance.
  42:Generated_Source\PSoC5/LCD_Char_1_LCDPort.c **** *
  43:Generated_Source\PSoC5/LCD_Char_1_LCDPort.c **** * \return 
  44:Generated_Source\PSoC5/LCD_Char_1_LCDPort.c **** *  None 
  45:Generated_Source\PSoC5/LCD_Char_1_LCDPort.c **** *
  46:Generated_Source\PSoC5/LCD_Char_1_LCDPort.c **** * \sideeffect
  47:Generated_Source\PSoC5/LCD_Char_1_LCDPort.c **** *  If you use read-modify-write operations that are not atomic; the Interrupt 
  48:Generated_Source\PSoC5/LCD_Char_1_LCDPort.c **** *  Service Routines (ISR) can cause corruption of this function. An ISR that 
  49:Generated_Source\PSoC5/LCD_Char_1_LCDPort.c **** *  interrupts this function and performs writes to the Pins component data 
  50:Generated_Source\PSoC5/LCD_Char_1_LCDPort.c **** *  register can cause corrupted port data. To avoid this issue, you should 
  51:Generated_Source\PSoC5/LCD_Char_1_LCDPort.c **** *  either use the Per-Pin APIs (primary method) or disable interrupts around 
  52:Generated_Source\PSoC5/LCD_Char_1_LCDPort.c **** *  this function.
  53:Generated_Source\PSoC5/LCD_Char_1_LCDPort.c **** *
  54:Generated_Source\PSoC5/LCD_Char_1_LCDPort.c **** * \funcusage
  55:Generated_Source\PSoC5/LCD_Char_1_LCDPort.c **** *  \snippet LCD_Char_1_LCDPort_SUT.c usage_LCD_Char_1_LCDPort_Write
  56:Generated_Source\PSoC5/LCD_Char_1_LCDPort.c **** *******************************************************************************/
  57:Generated_Source\PSoC5/LCD_Char_1_LCDPort.c **** void LCD_Char_1_LCDPort_Write(uint8 value)
  58:Generated_Source\PSoC5/LCD_Char_1_LCDPort.c **** {
  28              		.loc 1 58 0
  29              		.cfi_startproc
  30              		@ args = 0, pretend = 0, frame = 0
  31              		@ frame_needed = 0, uses_anonymous_args = 0
  32              		@ link register save eliminated.
  33              	.LVL0:
  59:Generated_Source\PSoC5/LCD_Char_1_LCDPort.c ****     uint8 staticBits = (LCD_Char_1_LCDPort_DR & (uint8)(~LCD_Char_1_LCDPort_MASK));
  34              		.loc 1 59 0
  35 0000 044A     		ldr	r2, .L2
  36 0002 1378     		ldrb	r3, [r2]	@ zero_extendqisi2
  37 0004 03F08003 		and	r3, r3, #128
  38              	.LVL1:
  60:Generated_Source\PSoC5/LCD_Char_1_LCDPort.c ****     LCD_Char_1_LCDPort_DR = staticBits | ((uint8)(value << LCD_Char_1_LCDPort_SHIFT) & LCD_Char_1_L
  39              		.loc 1 60 0
  40 0008 00F07F00 		and	r0, r0, #127
  41              	.LVL2:
  42 000c 1843     		orrs	r0, r0, r3
  43 000e 1070     		strb	r0, [r2]
  44 0010 7047     		bx	lr
  45              	.L3:
  46 0012 00BF     		.align	2
  47              	.L2:
  48 0014 20510040 		.word	1073762592
  49              		.cfi_endproc
  50              	.LFE0:
  51              		.size	LCD_Char_1_LCDPort_Write, .-LCD_Char_1_LCDPort_Write
  52              		.section	.text.LCD_Char_1_LCDPort_SetDriveMode,"ax",%progbits
  53              		.align	2
  54              		.global	LCD_Char_1_LCDPort_SetDriveMode
ARM GAS  C:\Users\MATEUS~1\AppData\Local\Temp\cc8IRglA.s 			page 3


  55              		.thumb
  56              		.thumb_func
  57              		.type	LCD_Char_1_LCDPort_SetDriveMode, %function
  58              	LCD_Char_1_LCDPort_SetDriveMode:
  59              	.LFB1:
  61:Generated_Source\PSoC5/LCD_Char_1_LCDPort.c **** }
  62:Generated_Source\PSoC5/LCD_Char_1_LCDPort.c **** 
  63:Generated_Source\PSoC5/LCD_Char_1_LCDPort.c **** 
  64:Generated_Source\PSoC5/LCD_Char_1_LCDPort.c **** /*******************************************************************************
  65:Generated_Source\PSoC5/LCD_Char_1_LCDPort.c **** * Function Name: LCD_Char_1_LCDPort_SetDriveMode
  66:Generated_Source\PSoC5/LCD_Char_1_LCDPort.c **** ****************************************************************************//**
  67:Generated_Source\PSoC5/LCD_Char_1_LCDPort.c **** *
  68:Generated_Source\PSoC5/LCD_Char_1_LCDPort.c **** * \brief Sets the drive mode for each of the Pins component's pins.
  69:Generated_Source\PSoC5/LCD_Char_1_LCDPort.c **** * 
  70:Generated_Source\PSoC5/LCD_Char_1_LCDPort.c **** * <b>Note</b> This affects all pins in the Pins component instance. Use the
  71:Generated_Source\PSoC5/LCD_Char_1_LCDPort.c **** * Per-Pin APIs if you wish to control individual pin's drive modes.
  72:Generated_Source\PSoC5/LCD_Char_1_LCDPort.c **** *
  73:Generated_Source\PSoC5/LCD_Char_1_LCDPort.c **** * \param mode
  74:Generated_Source\PSoC5/LCD_Char_1_LCDPort.c **** *  Mode for the selected signals. Valid options are documented in 
  75:Generated_Source\PSoC5/LCD_Char_1_LCDPort.c **** *  \ref driveMode.
  76:Generated_Source\PSoC5/LCD_Char_1_LCDPort.c **** *
  77:Generated_Source\PSoC5/LCD_Char_1_LCDPort.c **** * \return
  78:Generated_Source\PSoC5/LCD_Char_1_LCDPort.c **** *  None
  79:Generated_Source\PSoC5/LCD_Char_1_LCDPort.c **** *
  80:Generated_Source\PSoC5/LCD_Char_1_LCDPort.c **** * \sideeffect
  81:Generated_Source\PSoC5/LCD_Char_1_LCDPort.c **** *  If you use read-modify-write operations that are not atomic, the ISR can
  82:Generated_Source\PSoC5/LCD_Char_1_LCDPort.c **** *  cause corruption of this function. An ISR that interrupts this function 
  83:Generated_Source\PSoC5/LCD_Char_1_LCDPort.c **** *  and performs writes to the Pins component Drive Mode registers can cause 
  84:Generated_Source\PSoC5/LCD_Char_1_LCDPort.c **** *  corrupted port data. To avoid this issue, you should either use the Per-Pin
  85:Generated_Source\PSoC5/LCD_Char_1_LCDPort.c **** *  APIs (primary method) or disable interrupts around this function.
  86:Generated_Source\PSoC5/LCD_Char_1_LCDPort.c **** *
  87:Generated_Source\PSoC5/LCD_Char_1_LCDPort.c **** * \funcusage
  88:Generated_Source\PSoC5/LCD_Char_1_LCDPort.c **** *  \snippet LCD_Char_1_LCDPort_SUT.c usage_LCD_Char_1_LCDPort_SetDriveMode
  89:Generated_Source\PSoC5/LCD_Char_1_LCDPort.c **** *******************************************************************************/
  90:Generated_Source\PSoC5/LCD_Char_1_LCDPort.c **** void LCD_Char_1_LCDPort_SetDriveMode(uint8 mode)
  91:Generated_Source\PSoC5/LCD_Char_1_LCDPort.c **** {
  60              		.loc 1 91 0
  61              		.cfi_startproc
  62              		@ args = 0, pretend = 0, frame = 0
  63              		@ frame_needed = 0, uses_anonymous_args = 0
  64              		@ link register save eliminated.
  65              	.LVL3:
  92:Generated_Source\PSoC5/LCD_Char_1_LCDPort.c **** 	CyPins_SetPinDriveMode(LCD_Char_1_LCDPort_0, mode);
  66              		.loc 1 92 0
  67 0000 164A     		ldr	r2, .L5
  68 0002 1378     		ldrb	r3, [r2]	@ zero_extendqisi2
  69 0004 00F00E00 		and	r0, r0, #14
  70              	.LVL4:
  71 0008 03F0F103 		and	r3, r3, #241
  72 000c 0343     		orrs	r3, r3, r0
  73 000e 1370     		strb	r3, [r2]
  93:Generated_Source\PSoC5/LCD_Char_1_LCDPort.c **** 	CyPins_SetPinDriveMode(LCD_Char_1_LCDPort_1, mode);
  74              		.loc 1 93 0
  75 0010 0132     		adds	r2, r2, #1
  76 0012 1378     		ldrb	r3, [r2]	@ zero_extendqisi2
  77 0014 03F0F103 		and	r3, r3, #241
  78 0018 0343     		orrs	r3, r3, r0
ARM GAS  C:\Users\MATEUS~1\AppData\Local\Temp\cc8IRglA.s 			page 4


  79 001a 1370     		strb	r3, [r2]
  94:Generated_Source\PSoC5/LCD_Char_1_LCDPort.c **** 	CyPins_SetPinDriveMode(LCD_Char_1_LCDPort_2, mode);
  80              		.loc 1 94 0
  81 001c 0132     		adds	r2, r2, #1
  82 001e 1378     		ldrb	r3, [r2]	@ zero_extendqisi2
  83 0020 03F0F103 		and	r3, r3, #241
  84 0024 0343     		orrs	r3, r3, r0
  85 0026 1370     		strb	r3, [r2]
  95:Generated_Source\PSoC5/LCD_Char_1_LCDPort.c **** 	CyPins_SetPinDriveMode(LCD_Char_1_LCDPort_3, mode);
  86              		.loc 1 95 0
  87 0028 0132     		adds	r2, r2, #1
  88 002a 1378     		ldrb	r3, [r2]	@ zero_extendqisi2
  89 002c 03F0F103 		and	r3, r3, #241
  90 0030 0343     		orrs	r3, r3, r0
  91 0032 1370     		strb	r3, [r2]
  96:Generated_Source\PSoC5/LCD_Char_1_LCDPort.c **** 	CyPins_SetPinDriveMode(LCD_Char_1_LCDPort_4, mode);
  92              		.loc 1 96 0
  93 0034 0132     		adds	r2, r2, #1
  94 0036 1378     		ldrb	r3, [r2]	@ zero_extendqisi2
  95 0038 03F0F103 		and	r3, r3, #241
  96 003c 0343     		orrs	r3, r3, r0
  97 003e 1370     		strb	r3, [r2]
  97:Generated_Source\PSoC5/LCD_Char_1_LCDPort.c **** 	CyPins_SetPinDriveMode(LCD_Char_1_LCDPort_5, mode);
  98              		.loc 1 97 0
  99 0040 0132     		adds	r2, r2, #1
 100 0042 1378     		ldrb	r3, [r2]	@ zero_extendqisi2
 101 0044 03F0F103 		and	r3, r3, #241
 102 0048 0343     		orrs	r3, r3, r0
 103 004a 1370     		strb	r3, [r2]
  98:Generated_Source\PSoC5/LCD_Char_1_LCDPort.c **** 	CyPins_SetPinDriveMode(LCD_Char_1_LCDPort_6, mode);
 104              		.loc 1 98 0
 105 004c 0132     		adds	r2, r2, #1
 106 004e 1378     		ldrb	r3, [r2]	@ zero_extendqisi2
 107 0050 03F0F103 		and	r3, r3, #241
 108 0054 1843     		orrs	r0, r0, r3
 109 0056 1070     		strb	r0, [r2]
 110 0058 7047     		bx	lr
 111              	.L6:
 112 005a 00BF     		.align	2
 113              	.L5:
 114 005c 10500040 		.word	1073762320
 115              		.cfi_endproc
 116              	.LFE1:
 117              		.size	LCD_Char_1_LCDPort_SetDriveMode, .-LCD_Char_1_LCDPort_SetDriveMode
 118              		.section	.text.LCD_Char_1_LCDPort_Read,"ax",%progbits
 119              		.align	2
 120              		.global	LCD_Char_1_LCDPort_Read
 121              		.thumb
 122              		.thumb_func
 123              		.type	LCD_Char_1_LCDPort_Read, %function
 124              	LCD_Char_1_LCDPort_Read:
 125              	.LFB2:
  99:Generated_Source\PSoC5/LCD_Char_1_LCDPort.c **** }
 100:Generated_Source\PSoC5/LCD_Char_1_LCDPort.c **** 
 101:Generated_Source\PSoC5/LCD_Char_1_LCDPort.c **** 
 102:Generated_Source\PSoC5/LCD_Char_1_LCDPort.c **** /*******************************************************************************
 103:Generated_Source\PSoC5/LCD_Char_1_LCDPort.c **** * Function Name: LCD_Char_1_LCDPort_Read
ARM GAS  C:\Users\MATEUS~1\AppData\Local\Temp\cc8IRglA.s 			page 5


 104:Generated_Source\PSoC5/LCD_Char_1_LCDPort.c **** ****************************************************************************//**
 105:Generated_Source\PSoC5/LCD_Char_1_LCDPort.c **** *
 106:Generated_Source\PSoC5/LCD_Char_1_LCDPort.c **** * \brief Reads the associated physical port (pin status register) and masks 
 107:Generated_Source\PSoC5/LCD_Char_1_LCDPort.c **** *  the required bits according to the width and bit position of the component
 108:Generated_Source\PSoC5/LCD_Char_1_LCDPort.c **** *  instance. 
 109:Generated_Source\PSoC5/LCD_Char_1_LCDPort.c **** *
 110:Generated_Source\PSoC5/LCD_Char_1_LCDPort.c **** * The pin's status register returns the current logic level present on the 
 111:Generated_Source\PSoC5/LCD_Char_1_LCDPort.c **** * physical pin.
 112:Generated_Source\PSoC5/LCD_Char_1_LCDPort.c **** *
 113:Generated_Source\PSoC5/LCD_Char_1_LCDPort.c **** * \return 
 114:Generated_Source\PSoC5/LCD_Char_1_LCDPort.c **** *  The current value for the pins in the component as a right justified number.
 115:Generated_Source\PSoC5/LCD_Char_1_LCDPort.c **** *
 116:Generated_Source\PSoC5/LCD_Char_1_LCDPort.c **** * \funcusage
 117:Generated_Source\PSoC5/LCD_Char_1_LCDPort.c **** *  \snippet LCD_Char_1_LCDPort_SUT.c usage_LCD_Char_1_LCDPort_Read  
 118:Generated_Source\PSoC5/LCD_Char_1_LCDPort.c **** *******************************************************************************/
 119:Generated_Source\PSoC5/LCD_Char_1_LCDPort.c **** uint8 LCD_Char_1_LCDPort_Read(void)
 120:Generated_Source\PSoC5/LCD_Char_1_LCDPort.c **** {
 126              		.loc 1 120 0
 127              		.cfi_startproc
 128              		@ args = 0, pretend = 0, frame = 0
 129              		@ frame_needed = 0, uses_anonymous_args = 0
 130              		@ link register save eliminated.
 121:Generated_Source\PSoC5/LCD_Char_1_LCDPort.c ****     return (LCD_Char_1_LCDPort_PS & LCD_Char_1_LCDPort_MASK) >> LCD_Char_1_LCDPort_SHIFT;
 131              		.loc 1 121 0
 132 0000 024B     		ldr	r3, .L8
 133 0002 1878     		ldrb	r0, [r3]	@ zero_extendqisi2
 122:Generated_Source\PSoC5/LCD_Char_1_LCDPort.c **** }
 134              		.loc 1 122 0
 135 0004 00F07F00 		and	r0, r0, #127
 136 0008 7047     		bx	lr
 137              	.L9:
 138 000a 00BF     		.align	2
 139              	.L8:
 140 000c 21510040 		.word	1073762593
 141              		.cfi_endproc
 142              	.LFE2:
 143              		.size	LCD_Char_1_LCDPort_Read, .-LCD_Char_1_LCDPort_Read
 144              		.section	.text.LCD_Char_1_LCDPort_ReadDataReg,"ax",%progbits
 145              		.align	2
 146              		.global	LCD_Char_1_LCDPort_ReadDataReg
 147              		.thumb
 148              		.thumb_func
 149              		.type	LCD_Char_1_LCDPort_ReadDataReg, %function
 150              	LCD_Char_1_LCDPort_ReadDataReg:
 151              	.LFB3:
 123:Generated_Source\PSoC5/LCD_Char_1_LCDPort.c **** 
 124:Generated_Source\PSoC5/LCD_Char_1_LCDPort.c **** 
 125:Generated_Source\PSoC5/LCD_Char_1_LCDPort.c **** /*******************************************************************************
 126:Generated_Source\PSoC5/LCD_Char_1_LCDPort.c **** * Function Name: LCD_Char_1_LCDPort_ReadDataReg
 127:Generated_Source\PSoC5/LCD_Char_1_LCDPort.c **** ****************************************************************************//**
 128:Generated_Source\PSoC5/LCD_Char_1_LCDPort.c **** *
 129:Generated_Source\PSoC5/LCD_Char_1_LCDPort.c **** * \brief Reads the associated physical port's data output register and masks 
 130:Generated_Source\PSoC5/LCD_Char_1_LCDPort.c **** *  the correct bits according to the width and bit position of the component 
 131:Generated_Source\PSoC5/LCD_Char_1_LCDPort.c **** *  instance. 
 132:Generated_Source\PSoC5/LCD_Char_1_LCDPort.c **** *
 133:Generated_Source\PSoC5/LCD_Char_1_LCDPort.c **** * The data output register controls the signal applied to the physical pin in 
 134:Generated_Source\PSoC5/LCD_Char_1_LCDPort.c **** * conjunction with the drive mode parameter. This is not the same as the 
ARM GAS  C:\Users\MATEUS~1\AppData\Local\Temp\cc8IRglA.s 			page 6


 135:Generated_Source\PSoC5/LCD_Char_1_LCDPort.c **** * preferred LCD_Char_1_LCDPort_Read() API because the 
 136:Generated_Source\PSoC5/LCD_Char_1_LCDPort.c **** * LCD_Char_1_LCDPort_ReadDataReg() reads the data register instead of the status 
 137:Generated_Source\PSoC5/LCD_Char_1_LCDPort.c **** * register. For output pins this is a useful function to determine the value 
 138:Generated_Source\PSoC5/LCD_Char_1_LCDPort.c **** * just written to the pin.
 139:Generated_Source\PSoC5/LCD_Char_1_LCDPort.c **** *
 140:Generated_Source\PSoC5/LCD_Char_1_LCDPort.c **** * \return 
 141:Generated_Source\PSoC5/LCD_Char_1_LCDPort.c **** *  The current value of the data register masked and shifted into a right 
 142:Generated_Source\PSoC5/LCD_Char_1_LCDPort.c **** *  justified number for the component instance.
 143:Generated_Source\PSoC5/LCD_Char_1_LCDPort.c **** *
 144:Generated_Source\PSoC5/LCD_Char_1_LCDPort.c **** * \funcusage
 145:Generated_Source\PSoC5/LCD_Char_1_LCDPort.c **** *  \snippet LCD_Char_1_LCDPort_SUT.c usage_LCD_Char_1_LCDPort_ReadDataReg 
 146:Generated_Source\PSoC5/LCD_Char_1_LCDPort.c **** *******************************************************************************/
 147:Generated_Source\PSoC5/LCD_Char_1_LCDPort.c **** uint8 LCD_Char_1_LCDPort_ReadDataReg(void)
 148:Generated_Source\PSoC5/LCD_Char_1_LCDPort.c **** {
 152              		.loc 1 148 0
 153              		.cfi_startproc
 154              		@ args = 0, pretend = 0, frame = 0
 155              		@ frame_needed = 0, uses_anonymous_args = 0
 156              		@ link register save eliminated.
 149:Generated_Source\PSoC5/LCD_Char_1_LCDPort.c ****     return (LCD_Char_1_LCDPort_DR & LCD_Char_1_LCDPort_MASK) >> LCD_Char_1_LCDPort_SHIFT;
 157              		.loc 1 149 0
 158 0000 024B     		ldr	r3, .L11
 159 0002 1878     		ldrb	r0, [r3]	@ zero_extendqisi2
 150:Generated_Source\PSoC5/LCD_Char_1_LCDPort.c **** }
 160              		.loc 1 150 0
 161 0004 00F07F00 		and	r0, r0, #127
 162 0008 7047     		bx	lr
 163              	.L12:
 164 000a 00BF     		.align	2
 165              	.L11:
 166 000c 20510040 		.word	1073762592
 167              		.cfi_endproc
 168              	.LFE3:
 169              		.size	LCD_Char_1_LCDPort_ReadDataReg, .-LCD_Char_1_LCDPort_ReadDataReg
 170              		.text
 171              	.Letext0:
 172              		.file 2 "Generated_Source\\PSoC5\\cytypes.h"
 173              		.section	.debug_info,"",%progbits
 174              	.Ldebug_info0:
 175 0000 1B010000 		.4byte	0x11b
 176 0004 0400     		.2byte	0x4
 177 0006 00000000 		.4byte	.Ldebug_abbrev0
 178 000a 04       		.byte	0x4
 179 000b 01       		.uleb128 0x1
 180 000c 8F000000 		.4byte	.LASF20
 181 0010 0C       		.byte	0xc
 182 0011 4E010000 		.4byte	.LASF21
 183 0015 31000000 		.4byte	.LASF22
 184 0019 00000000 		.4byte	.Ldebug_ranges0+0
 185 001d 00000000 		.4byte	0
 186 0021 00000000 		.4byte	.Ldebug_line0
 187 0025 02       		.uleb128 0x2
 188 0026 01       		.byte	0x1
 189 0027 06       		.byte	0x6
 190 0028 1F020000 		.4byte	.LASF0
 191 002c 02       		.uleb128 0x2
 192 002d 01       		.byte	0x1
ARM GAS  C:\Users\MATEUS~1\AppData\Local\Temp\cc8IRglA.s 			page 7


 193 002e 08       		.byte	0x8
 194 002f 81000000 		.4byte	.LASF1
 195 0033 02       		.uleb128 0x2
 196 0034 02       		.byte	0x2
 197 0035 05       		.byte	0x5
 198 0036 B6010000 		.4byte	.LASF2
 199 003a 02       		.uleb128 0x2
 200 003b 02       		.byte	0x2
 201 003c 07       		.byte	0x7
 202 003d 34010000 		.4byte	.LASF3
 203 0041 02       		.uleb128 0x2
 204 0042 04       		.byte	0x4
 205 0043 05       		.byte	0x5
 206 0044 FD010000 		.4byte	.LASF4
 207 0048 02       		.uleb128 0x2
 208 0049 04       		.byte	0x4
 209 004a 07       		.byte	0x7
 210 004b 22010000 		.4byte	.LASF5
 211 004f 02       		.uleb128 0x2
 212 0050 08       		.byte	0x8
 213 0051 05       		.byte	0x5
 214 0052 A3010000 		.4byte	.LASF6
 215 0056 02       		.uleb128 0x2
 216 0057 08       		.byte	0x8
 217 0058 07       		.byte	0x7
 218 0059 87010000 		.4byte	.LASF7
 219 005d 03       		.uleb128 0x3
 220 005e 04       		.byte	0x4
 221 005f 05       		.byte	0x5
 222 0060 696E7400 		.ascii	"int\000"
 223 0064 02       		.uleb128 0x2
 224 0065 04       		.byte	0x4
 225 0066 07       		.byte	0x7
 226 0067 7A010000 		.4byte	.LASF8
 227 006b 04       		.uleb128 0x4
 228 006c F7010000 		.4byte	.LASF12
 229 0070 02       		.byte	0x2
 230 0071 9201     		.2byte	0x192
 231 0073 2C000000 		.4byte	0x2c
 232 0077 02       		.uleb128 0x2
 233 0078 04       		.byte	0x4
 234 0079 04       		.byte	0x4
 235 007a 7B000000 		.4byte	.LASF9
 236 007e 02       		.uleb128 0x2
 237 007f 08       		.byte	0x8
 238 0080 04       		.byte	0x4
 239 0081 47010000 		.4byte	.LASF10
 240 0085 02       		.uleb128 0x2
 241 0086 01       		.byte	0x1
 242 0087 08       		.byte	0x8
 243 0088 B1010000 		.4byte	.LASF11
 244 008c 04       		.uleb128 0x4
 245 008d 1D010000 		.4byte	.LASF13
 246 0091 02       		.byte	0x2
 247 0092 3C02     		.2byte	0x23c
 248 0094 98000000 		.4byte	0x98
 249 0098 05       		.uleb128 0x5
ARM GAS  C:\Users\MATEUS~1\AppData\Local\Temp\cc8IRglA.s 			page 8


 250 0099 6B000000 		.4byte	0x6b
 251 009d 06       		.uleb128 0x6
 252 009e 06020000 		.4byte	.LASF14
 253 00a2 01       		.byte	0x1
 254 00a3 39       		.byte	0x39
 255 00a4 00000000 		.4byte	.LFB0
 256 00a8 18000000 		.4byte	.LFE0-.LFB0
 257 00ac 01       		.uleb128 0x1
 258 00ad 9C       		.byte	0x9c
 259 00ae CF000000 		.4byte	0xcf
 260 00b2 07       		.uleb128 0x7
 261 00b3 20000000 		.4byte	.LASF16
 262 00b7 01       		.byte	0x1
 263 00b8 39       		.byte	0x39
 264 00b9 6B000000 		.4byte	0x6b
 265 00bd 00000000 		.4byte	.LLST0
 266 00c1 08       		.uleb128 0x8
 267 00c2 26000000 		.4byte	.LASF23
 268 00c6 01       		.byte	0x1
 269 00c7 3B       		.byte	0x3b
 270 00c8 6B000000 		.4byte	0x6b
 271 00cc 01       		.uleb128 0x1
 272 00cd 53       		.byte	0x53
 273 00ce 00       		.byte	0
 274 00cf 06       		.uleb128 0x6
 275 00d0 00000000 		.4byte	.LASF15
 276 00d4 01       		.byte	0x1
 277 00d5 5A       		.byte	0x5a
 278 00d6 00000000 		.4byte	.LFB1
 279 00da 60000000 		.4byte	.LFE1-.LFB1
 280 00de 01       		.uleb128 0x1
 281 00df 9C       		.byte	0x9c
 282 00e0 F4000000 		.4byte	0xf4
 283 00e4 07       		.uleb128 0x7
 284 00e5 9E010000 		.4byte	.LASF17
 285 00e9 01       		.byte	0x1
 286 00ea 5A       		.byte	0x5a
 287 00eb 6B000000 		.4byte	0x6b
 288 00ef 21000000 		.4byte	.LLST1
 289 00f3 00       		.byte	0
 290 00f4 09       		.uleb128 0x9
 291 00f5 C0010000 		.4byte	.LASF18
 292 00f9 01       		.byte	0x1
 293 00fa 77       		.byte	0x77
 294 00fb 6B000000 		.4byte	0x6b
 295 00ff 00000000 		.4byte	.LFB2
 296 0103 10000000 		.4byte	.LFE2-.LFB2
 297 0107 01       		.uleb128 0x1
 298 0108 9C       		.byte	0x9c
 299 0109 09       		.uleb128 0x9
 300 010a D8010000 		.4byte	.LASF19
 301 010e 01       		.byte	0x1
 302 010f 93       		.byte	0x93
 303 0110 6B000000 		.4byte	0x6b
 304 0114 00000000 		.4byte	.LFB3
 305 0118 10000000 		.4byte	.LFE3-.LFB3
 306 011c 01       		.uleb128 0x1
ARM GAS  C:\Users\MATEUS~1\AppData\Local\Temp\cc8IRglA.s 			page 9


 307 011d 9C       		.byte	0x9c
 308 011e 00       		.byte	0
 309              		.section	.debug_abbrev,"",%progbits
 310              	.Ldebug_abbrev0:
 311 0000 01       		.uleb128 0x1
 312 0001 11       		.uleb128 0x11
 313 0002 01       		.byte	0x1
 314 0003 25       		.uleb128 0x25
 315 0004 0E       		.uleb128 0xe
 316 0005 13       		.uleb128 0x13
 317 0006 0B       		.uleb128 0xb
 318 0007 03       		.uleb128 0x3
 319 0008 0E       		.uleb128 0xe
 320 0009 1B       		.uleb128 0x1b
 321 000a 0E       		.uleb128 0xe
 322 000b 55       		.uleb128 0x55
 323 000c 17       		.uleb128 0x17
 324 000d 11       		.uleb128 0x11
 325 000e 01       		.uleb128 0x1
 326 000f 10       		.uleb128 0x10
 327 0010 17       		.uleb128 0x17
 328 0011 00       		.byte	0
 329 0012 00       		.byte	0
 330 0013 02       		.uleb128 0x2
 331 0014 24       		.uleb128 0x24
 332 0015 00       		.byte	0
 333 0016 0B       		.uleb128 0xb
 334 0017 0B       		.uleb128 0xb
 335 0018 3E       		.uleb128 0x3e
 336 0019 0B       		.uleb128 0xb
 337 001a 03       		.uleb128 0x3
 338 001b 0E       		.uleb128 0xe
 339 001c 00       		.byte	0
 340 001d 00       		.byte	0
 341 001e 03       		.uleb128 0x3
 342 001f 24       		.uleb128 0x24
 343 0020 00       		.byte	0
 344 0021 0B       		.uleb128 0xb
 345 0022 0B       		.uleb128 0xb
 346 0023 3E       		.uleb128 0x3e
 347 0024 0B       		.uleb128 0xb
 348 0025 03       		.uleb128 0x3
 349 0026 08       		.uleb128 0x8
 350 0027 00       		.byte	0
 351 0028 00       		.byte	0
 352 0029 04       		.uleb128 0x4
 353 002a 16       		.uleb128 0x16
 354 002b 00       		.byte	0
 355 002c 03       		.uleb128 0x3
 356 002d 0E       		.uleb128 0xe
 357 002e 3A       		.uleb128 0x3a
 358 002f 0B       		.uleb128 0xb
 359 0030 3B       		.uleb128 0x3b
 360 0031 05       		.uleb128 0x5
 361 0032 49       		.uleb128 0x49
 362 0033 13       		.uleb128 0x13
 363 0034 00       		.byte	0
ARM GAS  C:\Users\MATEUS~1\AppData\Local\Temp\cc8IRglA.s 			page 10


 364 0035 00       		.byte	0
 365 0036 05       		.uleb128 0x5
 366 0037 35       		.uleb128 0x35
 367 0038 00       		.byte	0
 368 0039 49       		.uleb128 0x49
 369 003a 13       		.uleb128 0x13
 370 003b 00       		.byte	0
 371 003c 00       		.byte	0
 372 003d 06       		.uleb128 0x6
 373 003e 2E       		.uleb128 0x2e
 374 003f 01       		.byte	0x1
 375 0040 3F       		.uleb128 0x3f
 376 0041 19       		.uleb128 0x19
 377 0042 03       		.uleb128 0x3
 378 0043 0E       		.uleb128 0xe
 379 0044 3A       		.uleb128 0x3a
 380 0045 0B       		.uleb128 0xb
 381 0046 3B       		.uleb128 0x3b
 382 0047 0B       		.uleb128 0xb
 383 0048 27       		.uleb128 0x27
 384 0049 19       		.uleb128 0x19
 385 004a 11       		.uleb128 0x11
 386 004b 01       		.uleb128 0x1
 387 004c 12       		.uleb128 0x12
 388 004d 06       		.uleb128 0x6
 389 004e 40       		.uleb128 0x40
 390 004f 18       		.uleb128 0x18
 391 0050 9742     		.uleb128 0x2117
 392 0052 19       		.uleb128 0x19
 393 0053 01       		.uleb128 0x1
 394 0054 13       		.uleb128 0x13
 395 0055 00       		.byte	0
 396 0056 00       		.byte	0
 397 0057 07       		.uleb128 0x7
 398 0058 05       		.uleb128 0x5
 399 0059 00       		.byte	0
 400 005a 03       		.uleb128 0x3
 401 005b 0E       		.uleb128 0xe
 402 005c 3A       		.uleb128 0x3a
 403 005d 0B       		.uleb128 0xb
 404 005e 3B       		.uleb128 0x3b
 405 005f 0B       		.uleb128 0xb
 406 0060 49       		.uleb128 0x49
 407 0061 13       		.uleb128 0x13
 408 0062 02       		.uleb128 0x2
 409 0063 17       		.uleb128 0x17
 410 0064 00       		.byte	0
 411 0065 00       		.byte	0
 412 0066 08       		.uleb128 0x8
 413 0067 34       		.uleb128 0x34
 414 0068 00       		.byte	0
 415 0069 03       		.uleb128 0x3
 416 006a 0E       		.uleb128 0xe
 417 006b 3A       		.uleb128 0x3a
 418 006c 0B       		.uleb128 0xb
 419 006d 3B       		.uleb128 0x3b
 420 006e 0B       		.uleb128 0xb
ARM GAS  C:\Users\MATEUS~1\AppData\Local\Temp\cc8IRglA.s 			page 11


 421 006f 49       		.uleb128 0x49
 422 0070 13       		.uleb128 0x13
 423 0071 02       		.uleb128 0x2
 424 0072 18       		.uleb128 0x18
 425 0073 00       		.byte	0
 426 0074 00       		.byte	0
 427 0075 09       		.uleb128 0x9
 428 0076 2E       		.uleb128 0x2e
 429 0077 00       		.byte	0
 430 0078 3F       		.uleb128 0x3f
 431 0079 19       		.uleb128 0x19
 432 007a 03       		.uleb128 0x3
 433 007b 0E       		.uleb128 0xe
 434 007c 3A       		.uleb128 0x3a
 435 007d 0B       		.uleb128 0xb
 436 007e 3B       		.uleb128 0x3b
 437 007f 0B       		.uleb128 0xb
 438 0080 27       		.uleb128 0x27
 439 0081 19       		.uleb128 0x19
 440 0082 49       		.uleb128 0x49
 441 0083 13       		.uleb128 0x13
 442 0084 11       		.uleb128 0x11
 443 0085 01       		.uleb128 0x1
 444 0086 12       		.uleb128 0x12
 445 0087 06       		.uleb128 0x6
 446 0088 40       		.uleb128 0x40
 447 0089 18       		.uleb128 0x18
 448 008a 9742     		.uleb128 0x2117
 449 008c 19       		.uleb128 0x19
 450 008d 00       		.byte	0
 451 008e 00       		.byte	0
 452 008f 00       		.byte	0
 453              		.section	.debug_loc,"",%progbits
 454              	.Ldebug_loc0:
 455              	.LLST0:
 456 0000 00000000 		.4byte	.LVL0
 457 0004 0C000000 		.4byte	.LVL2
 458 0008 0100     		.2byte	0x1
 459 000a 50       		.byte	0x50
 460 000b 0C000000 		.4byte	.LVL2
 461 000f 18000000 		.4byte	.LFE0
 462 0013 0400     		.2byte	0x4
 463 0015 F3       		.byte	0xf3
 464 0016 01       		.uleb128 0x1
 465 0017 50       		.byte	0x50
 466 0018 9F       		.byte	0x9f
 467 0019 00000000 		.4byte	0
 468 001d 00000000 		.4byte	0
 469              	.LLST1:
 470 0021 00000000 		.4byte	.LVL3
 471 0025 08000000 		.4byte	.LVL4
 472 0029 0100     		.2byte	0x1
 473 002b 50       		.byte	0x50
 474 002c 08000000 		.4byte	.LVL4
 475 0030 60000000 		.4byte	.LFE1
 476 0034 0400     		.2byte	0x4
 477 0036 F3       		.byte	0xf3
ARM GAS  C:\Users\MATEUS~1\AppData\Local\Temp\cc8IRglA.s 			page 12


 478 0037 01       		.uleb128 0x1
 479 0038 50       		.byte	0x50
 480 0039 9F       		.byte	0x9f
 481 003a 00000000 		.4byte	0
 482 003e 00000000 		.4byte	0
 483              		.section	.debug_aranges,"",%progbits
 484 0000 34000000 		.4byte	0x34
 485 0004 0200     		.2byte	0x2
 486 0006 00000000 		.4byte	.Ldebug_info0
 487 000a 04       		.byte	0x4
 488 000b 00       		.byte	0
 489 000c 0000     		.2byte	0
 490 000e 0000     		.2byte	0
 491 0010 00000000 		.4byte	.LFB0
 492 0014 18000000 		.4byte	.LFE0-.LFB0
 493 0018 00000000 		.4byte	.LFB1
 494 001c 60000000 		.4byte	.LFE1-.LFB1
 495 0020 00000000 		.4byte	.LFB2
 496 0024 10000000 		.4byte	.LFE2-.LFB2
 497 0028 00000000 		.4byte	.LFB3
 498 002c 10000000 		.4byte	.LFE3-.LFB3
 499 0030 00000000 		.4byte	0
 500 0034 00000000 		.4byte	0
 501              		.section	.debug_ranges,"",%progbits
 502              	.Ldebug_ranges0:
 503 0000 00000000 		.4byte	.LFB0
 504 0004 18000000 		.4byte	.LFE0
 505 0008 00000000 		.4byte	.LFB1
 506 000c 60000000 		.4byte	.LFE1
 507 0010 00000000 		.4byte	.LFB2
 508 0014 10000000 		.4byte	.LFE2
 509 0018 00000000 		.4byte	.LFB3
 510 001c 10000000 		.4byte	.LFE3
 511 0020 00000000 		.4byte	0
 512 0024 00000000 		.4byte	0
 513              		.section	.debug_line,"",%progbits
 514              	.Ldebug_line0:
 515 0000 A1000000 		.section	.debug_str,"MS",%progbits,1
 515      02004F00 
 515      00000201 
 515      FB0E0D00 
 515      01010101 
 516              	.LASF15:
 517 0000 4C43445F 		.ascii	"LCD_Char_1_LCDPort_SetDriveMode\000"
 517      43686172 
 517      5F315F4C 
 517      4344506F 
 517      72745F53 
 518              	.LASF16:
 519 0020 76616C75 		.ascii	"value\000"
 519      6500
 520              	.LASF23:
 521 0026 73746174 		.ascii	"staticBits\000"
 521      69634269 
 521      747300
 522              	.LASF22:
 523 0031 433A5C55 		.ascii	"C:\\Users\\Mateusz Gutowski\\Documents\\PSoC Creato"
ARM GAS  C:\Users\MATEUS~1\AppData\Local\Temp\cc8IRglA.s 			page 13


 523      73657273 
 523      5C4D6174 
 523      6575737A 
 523      20477574 
 524 0060 725C4952 		.ascii	"r\\IR_NEC\\ProjekPUSOC.cydsn\000"
 524      5F4E4543 
 524      5C50726F 
 524      6A656B50 
 524      55534F43 
 525              	.LASF9:
 526 007b 666C6F61 		.ascii	"float\000"
 526      7400
 527              	.LASF1:
 528 0081 756E7369 		.ascii	"unsigned char\000"
 528      676E6564 
 528      20636861 
 528      7200
 529              	.LASF20:
 530 008f 474E5520 		.ascii	"GNU C11 5.4.1 20160609 (release) [ARM/embedded-5-br"
 530      43313120 
 530      352E342E 
 530      31203230 
 530      31363036 
 531 00c2 616E6368 		.ascii	"anch revision 237715] -mcpu=cortex-m3 -mthumb -g -O"
 531      20726576 
 531      6973696F 
 531      6E203233 
 531      37373135 
 532 00f5 67202D66 		.ascii	"g -ffunction-sections -ffat-lto-objects\000"
 532      66756E63 
 532      74696F6E 
 532      2D736563 
 532      74696F6E 
 533              	.LASF13:
 534 011d 72656738 		.ascii	"reg8\000"
 534      00
 535              	.LASF5:
 536 0122 6C6F6E67 		.ascii	"long unsigned int\000"
 536      20756E73 
 536      69676E65 
 536      6420696E 
 536      7400
 537              	.LASF3:
 538 0134 73686F72 		.ascii	"short unsigned int\000"
 538      7420756E 
 538      7369676E 
 538      65642069 
 538      6E7400
 539              	.LASF10:
 540 0147 646F7562 		.ascii	"double\000"
 540      6C6500
 541              	.LASF21:
 542 014e 47656E65 		.ascii	"Generated_Source\\PSoC5\\LCD_Char_1_LCDPort.c\000"
 542      72617465 
 542      645F536F 
 542      75726365 
 542      5C50536F 
ARM GAS  C:\Users\MATEUS~1\AppData\Local\Temp\cc8IRglA.s 			page 14


 543              	.LASF8:
 544 017a 756E7369 		.ascii	"unsigned int\000"
 544      676E6564 
 544      20696E74 
 544      00
 545              	.LASF7:
 546 0187 6C6F6E67 		.ascii	"long long unsigned int\000"
 546      206C6F6E 
 546      6720756E 
 546      7369676E 
 546      65642069 
 547              	.LASF17:
 548 019e 6D6F6465 		.ascii	"mode\000"
 548      00
 549              	.LASF6:
 550 01a3 6C6F6E67 		.ascii	"long long int\000"
 550      206C6F6E 
 550      6720696E 
 550      7400
 551              	.LASF11:
 552 01b1 63686172 		.ascii	"char\000"
 552      00
 553              	.LASF2:
 554 01b6 73686F72 		.ascii	"short int\000"
 554      7420696E 
 554      7400
 555              	.LASF18:
 556 01c0 4C43445F 		.ascii	"LCD_Char_1_LCDPort_Read\000"
 556      43686172 
 556      5F315F4C 
 556      4344506F 
 556      72745F52 
 557              	.LASF19:
 558 01d8 4C43445F 		.ascii	"LCD_Char_1_LCDPort_ReadDataReg\000"
 558      43686172 
 558      5F315F4C 
 558      4344506F 
 558      72745F52 
 559              	.LASF12:
 560 01f7 75696E74 		.ascii	"uint8\000"
 560      3800
 561              	.LASF4:
 562 01fd 6C6F6E67 		.ascii	"long int\000"
 562      20696E74 
 562      00
 563              	.LASF14:
 564 0206 4C43445F 		.ascii	"LCD_Char_1_LCDPort_Write\000"
 564      43686172 
 564      5F315F4C 
 564      4344506F 
 564      72745F57 
 565              	.LASF0:
 566 021f 7369676E 		.ascii	"signed char\000"
 566      65642063 
 566      68617200 
 567              		.ident	"GCC: (GNU Tools for ARM Embedded Processors) 5.4.1 20160609 (release) [ARM/embedded-5-bran
